{
	"common": {
		"brand": "Salus",
		"countries": {
			"cz": "République thèque",
			"de": "Allemagne",
			"dk": "Danemark",
			"es": "Espagne",
			"fr": "France",
			"hu": "Hongrie",
			"it": "Italie",
			"nl": "Pays-Bas",
			"no": "Norvège",
			"pl": "Pologne",
			"ro": "Roumanie",
			"ru": "Russie",
			"sk": "Slovaquie",
			"sl": "Slovénie",
			"sv": "Suède",
			"uk": "Royaume-Uni",
			"us": "États-Unis"
		},
		"daysOfWeek": {
			"abbreviations": {
				"friday": "Ven",
				"monday": "Lun",
				"saturday": "Sam",
				"sunday": "Dim",
				"thursday": "Jeu",
				"tuesday": "Mar",
				"wednesday": "Mer"
			}
		},
		"footer": {
			"copyrightText": "Salus Controls, Inc. Tous droits réservés.",
			"privacyPolicy": "Politique de confidentialité",
			"termsAndConditions": "Modalités et conditions"
		},
		"header": {
			"about": "À propos de cette appli",
			"allEquipment": "Tout équipement",
			"contactSupport": "Contact Support",
			"dataCollection": "Collecte de données",
			"equipment": "Équipement",
			"faq": "FAQ",
			"gateways": "Gateways",
			"help": "Aide",
			"home": "Accueil",
			"logout": "Déconnexion",
			"messageCenter": "Centre de messages",
			"myStatus": "Mon statut",
			"oneTouch": "OneTouch",
			"profile": "Profil",
			"settings": "Paramètres",
			"setupEquipment": "Configurer l’équipement"
		},
		"labels": {
			"accept": "Accepter",
			"apply": "Apply",
			"back": "Retour",
			"cancel": "Annuler",
			"close": "Fermer",
			"create": "Créer",
			"daily": "Quotidien",
			"delete": "Supprimer",
			"edit": "Modifier",
			"email": "E-mail",
			"enable": "Activer",
			"finished": "Terminé",
			"monthly": "Mensuel",
			"next": "Suivant",
			"no": "Non",
			"off": "Éteint",
			"ok": "OK",
			"on": "Allumé",
			"save": "Enregistrer",
			"saved": "Enregistré",
			"select": "Sélectionner un élément",
			"set": "Configurer",
			"skip": "Passer",
			"turnOff": "Éteindre",
			"turnOn": "Allumer",
			"weekly": "Hebdomadaire",
			"yearly": "Annuel",
			"yes": "Oui"
		},
		"languages": {
			"cs": "tchèque",
			"da": "danois",
			"de": "allemand",
			"en-uk": "anglais (GB)",
			"en-us": "anglais (E-U)",
			"es": "espagnol",
			"fr": "français",
			"hu": "hongrois",
			"it": "italien",
			"nl": "néerlandais",
			"no": "norvégien",
			"pl": "polonais",
			"ro": "roumain",
			"ru": "russe",
			"sk": "slovaque",
			"sl": "slovène",
			"sv": "suédois"
		},
		"lessDetails": "Moins de détails",
		"loadingMessage": "Salus est en cours de chargement...",
		"months": {
			"april": "Avril",
			"august": "Août",
			"december": "Décembre",
			"february": "Février",
			"january": "Janvier",
			"july": "Juillet",
			"june": "Juin",
			"march": "Mars",
			"may": "Mai",
			"november": "Novembre",
			"october": "Octobre",
			"september": "Septembre"
		},
		"moreDetails": "Plus de détails",
		"symbols": {
			"celsius": "&#8451;",
			"fahrenheit": "&#8457;"
		},
		"validation": {
			"ayla": {
				"cantbeblank": "Ce champ ne peut pas être vide.",
				"confirmaccountbeforecontinue": "Veuillez confirmer le compte avant de continuer",
				"hasalreadybeentaken": "Cette adresse e-mail est déjà prise",
				"isinvalid": "Ce champ est invalide",
				"tokeninvalid": "Ce jeton est invalide",
				"useridisalreadygratnedforthatresource": "Cette adresse e-mail est déjà prise"
			},
			"default": {
				"requiredField": "Ce champ est requis"
			},
			"email": {
				"alreadyConfirmed": "Cette adresse e-mail est déjà confirmée.",
				"notFound": "Aucun compte connu pour cet e-mail",
				"notMatching": "Les adresses e-mails que vous avez entrées ne correspondent pas",
				"notValid": "L’adresse e-mail que vous avez entrée n’est pas valide"
			},
			"integerRangeFormatted": "Nombre entier entre__min__ et __max__",
			"ipAddress": "Cette adresse n’est pas valide. Veuillez utiliser le format x.x.x.x",
			"mobile": {
				"notValid": "Ce numéro de téléphone n’est pas valide.",
				"selectCountry": "Veuillez d’abord sélectionner un pays."
			},
			"numberRangeFormatted": "Nombre entre __min__ et __max__",
			"passwords": {
				"notMatching": "Les mots de passe ne correspondent pas",
				"tooLong": "Les mots de passe ne peuvent contenir plus de quatorze caractères",
				"tooShort": "Les mots de passe doivent contenir au moins six caractères",
				"tooSimple": "Ce mot de passe est trop simple"
			},
			"postcode": {
				"notValid": "Code postal non valide"
			},
			"wordsOnly": "Ce champ n’accepte que des lettres (pas de chiffres).",
			"zip": {
				"notValid": "Ce code postal n’est pas valide. Devrait contenir jusqu’à 9 chiffres."
			}
		}
	},
	"dashboard": {
		"addGateway": "Ajouter une nouvelle passerelle",
		"header": {
			"addAPhoto": "Ajouter une photo",
			"cancelScan": "Annuler le balayage ?",
			"choosePhoto": "Choisir une photo dans la bibliothèque",
			"scanComplete": "Balayage terminé",
			"scanMyHome": "Balayer ma maison",
			"scanned": "Balayé",
			"scanning": "Balayage en cours...",
			"takeAPhoto": "Prendre une photo"
		},
		"welcomeTile": {
			"description": "Ce tableau de bord vous permet de voir et de gérer votre équipement en un coup d'œil. Épinglez l’équipement, une fonctionnalité OneTouch, ou plus pour gérer votre maison à partir d’un seul écran.",
			"title": "Bienvenue dans votre tableau de bord !"
		}
	},
	"email": {
		"dynamic_body": {
			"title": "Bonjour [[user_name]]"
		},
		"footer": {
			"legalText": "",
			"salusCompanyAddress": "850 Main St, Redwood City, CA 94063",
			"salusCompanyName": "Salus Controls, Inc",
			"salusCopyRightHTML": "&copy; Salus Inc. 2016",
			"salusWebSiteText": "www.salusinc.com",
			"salusWebSiteUrl": "http://www.salusinc.com"
		},
		"guest_signup_confirmation": {
			"buttonText": "Confirmer compte",
			"contentBottomHTML": "<p>Bienvenue aux Solutions Connectées Salus !</p>",
			"contentTopHTML": "<p>Vous avez été invité(e) sur le compte Salus de [primary user]. Veuillez désormais confirmer votre compte invité. Vous disposez de 30 jours à compter d'aujourd'hui pour effectuer la confirmation.</p>",
			"emailSubject": "Veuillez confirmer votre accès d’invité Salus",
			"title": "Bienvenue [[user_name]]!"
		},
		"password_reset": {
			"buttonText": "Réinitialiser mot de passe",
			"contentBottomHTML": "<p>Si vous n'avez pas demandé cette réinitialisation ou si vous avez changé d'avis, vous pouvez ignorer ce message ; aucune action n'est nécessaire.</p><p>Besoins d'aide ou de renseignements ? Rendez-vous sur nos pages Assistance pour obtenir des informations utiles.</p><p>Votre équipe de Service de Solutions Connectées Salus</p>",
			"contentTopHTML": "<p>Nous avons bien reçu votre demande de réinitialisation de mot de passe. Veuillez maintenant réinitialiser votre mot de passe. Vous demande de réinitialisation expirera dans 6 heures et ce lien ne peut être utilisé qu'une seule fois.",
			"title": "Bonjour [[user_name]]"
		},
		"resource_share": {
			"emailBodyHTML": "[[share_owner_user_name]] vous donne un accès [[share_operation]] à [[share_resource_name]] avec l'ID : [[share_resource_id]]",
			"emailSubject": "[[share_owner_user_name]] vous donne un accès [[share_operation]] à [[share_resource_name]] avec l’ID : [[share_resource_id]]",
			"title": "Bonjour [[share_target_user_name]]"
		},
		"signup_confirmation": {
			"buttonText": "Confirmer compte",
			"contentBottomHTML": "",
			"contentTopHTML": "<p>Merci d'avoir créé votre profile. Veuillez désormais confirmer votre compte. Vous disposez de 30 jours à compter d'aujourd'hui pour effectuer la confirmation.</p><p>Une fois votre compte confirmé, nous vous accompagnerons dans le reste du processus de configuration.</p><p>Bienvenue aux Solutions connectées Salus !</p>",
			"emailSubject": "Veuillez confirmer votre compte Salus",
			"title": "Bienvenue [[user_name]]!"
		},
		"trigger_app": {
			"title": "Bonjour [[user_name]]"
		}
	},
	"equipment": {
		"common": {
			"firmVer": "Version du firmware :",
			"mac": "Adresse Mac :",
			"model": "Modèle :",
			"serialNum": "No de série :"
		},
		"delete": {
			"equipmentDontWorry": "Pas de problème : il vous sera toujours possible de l’ajouter plus tard.",
			"gatewayWarning": "Toutefois, tout service associé à la passerelle sera aussi supprimé.",
			"removeEquipment": "Supprimer l’équipement",
			"removeEquipmentFormatted": "Supprimer __modelTypeName__",
			"removeSharedEquipmentFormatted": "Supprimer__modelTypeName__ partagé",
			"sharesDontWorry": "Pas de problème : il vous sera toujours possible de les ajouter plus tard.",
			"warning": "Vous allez supprimer __product_name__"
		},
		"dialog": {
			"body": "Choisissez parmi les options suivantes :",
			"changeAllDevicesFormatted": "Changer tous les appareils __modelTypeName__",
			"changeThisDevice": "Changer celui-ci seulement",
			"checkboxDoNotShowAgain": "Ne plus afficher",
			"titleFormatted": "Vous allez changer les paramètres d’un seul __modelTypeName__"
		},
		"error": {
			"deviceOffline": "L'appareil est hors ligne",
			"eMeterGraphError": "Un problème s'est produit durant le chargement du graphique, cliquez ici pour recommencer",
			"syncError": "Les propriétés n'ont pas pu être synchronisées pour __device__",
			"tryAgain": "Veuillez vérifier l'état de fonctionnement de votre appareil et réessayer ultérieurement."
		},
		"gateway": {
			"address": {
				"addressLabel": "Adresse",
				"cityLabel": "Ville",
				"header": "Adresse où l’équipement est installé",
				"postcodeLabel": "Postcode",
				"stateLabel": "État/province",
				"zipLabel": "Code postal"
			},
			"deviceInputLabel": "Nom de la passerelle",
			"deviceSerialNumber": "Numéro de série de la passerelle",
			"error": {
				"invalidDeviceSerialNumber": "Passerelle non trouvée. Veuillez appuyer sur le bouton de la passerelle, puis cliquer à nouveau sur le bouton de rafraîchissement de la recherche.",
				"registrationFailedNoNodes": "La configuration de la passerelle n'a pas fonctionné. Veuillez attendre deux minutes avant d’essayer à nouveau.",
				"registrationFailedUnknown": "L’enregistrement de la passerelle n’a pas fonctionné. Veuillez essayer à nouveau.",
				"registrationTimeout": "La fenêtre d’enregistrement est expirée. Veuillez appuyer à nouveau sur le bouton de la passerelle."
			},
			"header": "Activez votre passerelle",
			"instruction": "Lorsque le voyant LED de votre passerelle devient bleue fixe, cliquez sur le bouton \"Rechercher Passerelle\" ci-dessous. Le numéro de série de la passerelle devrait être automatiquement renseigné.",
			"searchButton": "Rechercher Passerelle",
			"subheader": "Assurez-vous que votre passerelle est connectée au modem par un câble ethernet.",
			"submitButton": "Activer ma passerelle"
		},
		"history": {
			"headers": {
				"date": "Date",
				"event": "Événement",
				"time": "Heure",
				"user": "Utilisateur"
			},
			"title": "Historique"
		},
		"information": {
			"headers": {
				"connection": "Connecté",
				"dsn": "No de série",
				"firmware": "Version du Firmware",
				"mac": "Adresse MAC",
				"oem": "Modèle",
				"version": "Version du logiciel"
			},
			"title": "Informations"
		},
		"it600Warnings": {
			"Error01": "Erreur01 : Problème d’équipement avec le thermostat apparié à la VRT",
			"Error02": "Erreur02 : Capteur au sol du thermostat en surchauffe",
			"Error03": "Erreur03 : Capteur au sol du thermostat ouvert",
			"Error04": "Erreur04 : Court-circuit dans le capteur au sol du thermostat",
			"Error05": "Erreur05 : Le thermostat a perdu le contact avec le contrôleur",
			"Error06": "Erreur06 : Le thermostat a perdu le contact avec le panneau de câblage",
			"Error07": "Erreur07 : Le thermostat a perdu le contact avec le VRT",
			"Error08": "Erreur08 : Le thermostat a perdu le contact avec le récepteur 1",
			"Error09": "Erreur09 : Le thermostat a perdu le contact avec le récepteur 2",
			"Error21": "Erreur21 : Le thermostat apparié à la VRT a perdu le contact avec le contrôleur",
			"Error22": "Erreur22 : Pile du thermostat apparié à la VRT faible",
			"Error23": "Erreur23 : Le thermostat a reçu un message d’erreur d’appariement à la VRT ou la VRT a reçu un message d’erreur d’appariement au Thermostat",
			"Error24": "Erreur24 : Thermostat refusé par le panneau de câblage",
			"Error25": "Erreur25 : Thermostat a perdu le contact avec connexion parente",
			"Error30": "Erreur30 : Problème d’équipement du thermostat apparié à la VRT",
			"Error31": "Erreur31 : Problème d’adaptateur du thermostat apparié à la VRT",
			"Error32": "Erreur32 : Pile du thermostat faible",
			"modal": {
				"title": "IT600 Erreurs courantes"
			}
		},
		"myEquipment": {
			"categories": {
				"noEquipment": "Vous n’avez aucun équipement de ce type.",
				"schedules": {
					"scheduleButton": "Créer programme",
					"scheduleText": "Créer un programme maintenant",
					"smartPlugs": "Les programmes gèrent automatiquement vos Smart Plugs à partir des paramètres de préférence. Vous pouvez utiliser nos programmes par défaut recommandés ou créer vos propres programmes.",
					"thermostats": "Les programmes gèrent automatiquement le chauffage et la climatisation de votre thermostat à partir des paramètres de préférence. Vous pouvez utiliser nos programmes par défaut recommandés ou créer vos propres programmes.",
					"waterHeaters": "Les programmes gèrent automatiquement vos chauffe-eau à partir des paramètres de préférence. Vous pouvez utiliser nos programmes par défaut recommandés ou créer vos propres programmes."
				},
				"thermostats": {
					"createTsc": "Ajouter une nouvelle commande unique",
					"individualControls": "Contrôles individuels",
					"singleControls": "Commande unique",
					"thermostatsIn": "Thermostats dans"
				},
				"title": "Catégories",
				"types": {
					"carbonMonoxideDetectors": "Détecteurs de monoxyde de carbone",
					"doorMonitors": "Contrôleurs de portes",
					"energyMeters": "Compteurs d’énergie",
					"gateways": "Passerelle",
					"smartPlugs": "Smart Plugs",
					"smokeDetectors": "Détecteurs de fumée",
					"thermostats": "Thermostats",
					"trvs": "Vanne thermostatique",
					"waterHeaters": "Chauffe-eau",
					"windowMonitors": "Contrôleurs de fenêtre",
					"wirelessUncontrollableDevices": "Appareils sans fil incontrôlables"
				}
			},
			"groups": {
				"addNewEquipment": "Ajouter un nouvel appareil",
				"addNewGroup": "Ajouter un nouveau groupe",
				"groupEquipment": "Groupe d’appareils",
				"success": "Bravo !",
				"successMessage": "La commande unique de votre thermostat a été créée.",
				"title": "Groupes",
				"ungrouped": "Appareils dégroupés"
			},
			"newGroup": {
				"createError": "Un problème est survenu pendant la création de votre groupe. Veuillez essayer à nouveau",
				"delete": {
					"linkText": "Supprimer le groupe",
					"modalLabel": "Vous allez supprimer le groupe",
					"warning": " Pas de problème, les appareils resteront dans votre compte et vous pourrez créer le groupe plus tard."
				},
				"deviceError": "Un groupe doit contenir au moins un appareil",
				"empty": "Désolé, vous n’avez aucun appareil à afficher !",
				"nameError": "Veuillez entrer un nom de groupe valide",
				"newGroupText": "Nom du groupe d’appareils",
				"newGroupTitle": "Nommer votre groupe",
				"pageTitle": "Grouper les appareils",
				"selectEquipmentTitle": "Sélectionnez les appareils que vous désirez intégrer à ce groupe",
				"updateError": "Un problème est survenu pendant la mise à jour de votre groupe. Veuillez essayer à nouveau"
			},
			"subHeader": "Organisez vos appareils comme vous le souhaitez, par catégorie, par emplacement, ou comme cela vous convient.",
			"title": "Mes appareils"
		},
		"names": {
			"carbonMonoxideDetector": "Détecteur de MO",
			"coordinatorDevice": "Contrôleur",
			"doorMonitor": "Contrôleur de porte",
			"energyMeter": "Compteur d'énergie",
			"gateway": "Passerelle",
			"gatewayNode": "Nœud de passerelle",
			"generic": "Équipement",
			"iT600BoilerReceiver": "Récepteur chauffe-eau",
			"iT600Thermostat": "Thermostat IT600",
			"iT600Trv": "TRV",
			"iT600WiringCenter": "Panneau de câblage",
			"miniSmartPlug": "Smart Plug",
			"smartPlug": "Smart Plug",
			"smokeDetector": "Détecteur de fumée",
			"thermostat": "Thermostat",
			"waterHeater": "Chauffe-eau",
			"windowMonitor": "Contrôleur de fenêtre"
		},
		"oneTouch": {
			"automations": {
				"addNew": "Ajouter une nouvelle fonctionnalité OneTouch",
				"added": "Fonctionnalité OneTouch ajoutée",
				"title": "OneTouch"
			},
			"create": {
				"criteriaSection": "Définir les règles",
				"defaultRuleName": "Nouvelle règle One Touch__ruleNum__",
				"include": "Inclure cette fonctionnalité OneTouch dans un statut ?",
				"missingCriteriaError": "Veuillez choisir au moins une action",
				"nameSection": "Nommer cette fonctionnalité OneTouch",
				"nameTextbox": "P. ex. : lumière du porche",
				"pin": {
					"pinText": "Épingler",
					"subtitle": "Voulez-vous épingler cette fonctionnalité OneTouch sur votre tableau de bord ?",
					"unpinText": "Ne pas épingler"
				},
				"subtitle": "",
				"title": "Créer une nouvelle fonctionnalité OneTouch"
			},
			"criteria": {
				"andWhen": "et quand",
				"buttonPress": "le bouton Démarrer  maintenant est enfoncé",
				"dayOfWeek": {
					"everyday": "Tous les jours",
					"prefix": "Jour de la semaine est __val__",
					"weekdays": "Jours de semaine",
					"weekends": "Weekends"
				},
				"doThis": "Effectuer cette action",
				"orWhen": "ou quand",
				"propVal": {
					"doorWindow": {
						"closed": "fermé",
						"open": "ouvert"
					},
					"generic": "Définir __device_name__ à __val__",
					"is": "est __val__",
					"isBetween": "est entre __lower_val__ et __upper_val__",
					"isGreaterThan": "est supérieur à __val__",
					"isLessThan": "est inférieur à __val__",
					"sensor": {
						"alerting": "Alerte"
					},
					"smartPlug": {
						"action": "Mettre le __device_name__ à __val__",
						"off": "ÉTEINT",
						"on": "ALLUMÉ"
					},
					"thermostat": {
						"action": "Mettre le __device_name__ à __val__",
						"auto": "Mode auto",
						"cooling": "Mode climatisation",
						"decreaseBy": "diminuer de __val__ degrés",
						"degrees": "degrés",
						"fanAuto": "Ventilateur Auto",
						"fanOn": "Ventilateur allumé",
						"heating": "Mode chauffage",
						"increaseBy": "augmenter de __val__ degrés",
						"off": "Éteint"
					},
					"waterHeater": {
						"action": "Mettre __device_name__ sur __val__",
						"boost": "Boost",
						"continuous": "continu",
						"off": "off",
						"schedule": "programmé"
					}
				},
				"sendAlert": {
					"email": {
						"prefix": "Envoyer un e-mail à __val__",
						"sendEmail": "Envoyer un e-mail"
					},
					"sms": {
						"prefix": "Envoyer un SMS à__val__",
						"sendSMS": "Envoyer un SMS"
					}
				},
				"sorry": "désolé",
				"thenDoThis": "puis effectuer cette action",
				"thenDoThisLater": "puis effectuer cette action plus tard",
				"timeOfDay": {
					"prefix": "L’heure du jour est__val__",
					"suffix": "à __val__"
				},
				"timer": {
					"baseTime": "__property_actions__ dans __time_string__",
					"combined": "__hour_string__ et__min_string__",
					"hour": {
						"hour": "__time__ heure",
						"hours": "__time__ heures"
					},
					"min": {
						"minute": "__time__ minute",
						"minutes": "__time__ minutes"
					},
					"now": "__property_actions__ maintenant"
				},
				"unsupported": "Le critère de votre règle n’est pas proposé actuellement",
				"when": "quand"
			},
			"details": {
				"addToDash": "Ajouter au tableau de bord :",
				"delete": {
					"modalText": "La fonction One Touch ne fonctionne plus et sera retirée de vos réglages Mon statut'.",
					"oneTouch": "Vous allez supprimer __one_touch__"
				},
				"includedIn": "Inclus dans :",
				"runNow": "Démarrer maintenant"
			},
			"edit": {
				"title": "Modifier la fonctionnalité OneTouch"
			},
			"emails": {
				"subjectFormatted": "La règle OneTouch __ruleName__ a été activée",
				"usernameFormatted": "__firstname__ __lastname__"
			},
			"menus": {
				"doThis": {
					"header": "EFFECTUER L'ACTION SUIVANTE",
					"notifyMe": {
						"contactMenu": {
							"addNew": "Ajouter nouveau",
							"addNewContact": "Ajouter un nouveau contact",
							"countryCode": "Pays",
							"email": "Adresse e-mail",
							"emailConfirm": "Veuillez confirmer l’adresse e-mail",
							"emailOptional": "Adresse e-mail (optionnelle)",
							"mobilePhone": "Numéro mobile",
							"mobilePhoneOptional": "Numéro mobile (optionnel)",
							"name": "Nom de la personne à contacter",
							"select": "Comment voudriez-vous et vos invités recevoir les alertes ?"
						},
						"email": "Envoyer un e-mail",
						"emailHeader": "E-mail",
						"sms": "Envoyer un SMS",
						"smsHeader": "Texte SMS"
					},
					"propertyChange": {
						"changeFanMode": "Changer le mode ventilation",
						"changeMode": "Changer le mode",
						"changeSetTemp": "Changer le réglage",
						"exactTemp": "Température exacte",
						"fanAuto": "Auto",
						"fanOn": "Ventilateur allumé",
						"increaseDecrease": "Augmenter ou diminuer de",
						"smartPlugOff": "Éteindre smart plug",
						"smartPlugOn": "Allumer smart plug",
						"waterHeater": {
							"boost": "Mettre sur mode Boost",
							"continuous": "Mettre sur mode continu",
							"off": "Mettre sur off",
							"schedule": "Mettre sur programme"
						}
					},
					"root": {
						"notifyMe": "M’envoyer une notification",
						"propertyChange": "Modifier une propriété de l’appareil"
					}
				},
				"thenDoThis": {
					"header": "EFFECTUER CETTE ACTION PLUS TARD",
					"root": {
						"stateOfEquipment": "État de l’équipement",
						"undo": "Annuler"
					},
					"timer": {
						"changeCheckBox": "Permettre à l’utilisateur de modifier la durée",
						"hours": "Pendant ces heures",
						"minutes": "Pendant ces minutes",
						"title": "Après combien de temps cela doit-il se produire ?"
					},
					"undo": {
						"title": "Changer cette fonctionnalité OneTouch ?"
					}
				},
				"when": {
					"dayOfWeek": {
						"finalMenu": "Sélectionnez les jours de la semaine auxquels votre fonctionnalité OneTouch doit fonctionner.",
						"picker": "Sélectionner les jours de la semaine",
						"weekday": "Jours de la semaine",
						"weekend": "Weekends"
					},
					"header": "QUAND",
					"pressAButton": {
						"button": "Activation des règles sur pression du bouton"
					},
					"root": {
						"dayOfWeek": "Jour de la semaine",
						"pressAButton": "J'enfonce un bouton",
						"stateOfEquipment": "État de l’équipement",
						"timeOfDay": "Heure du jour",
						"weather": "Météo"
					},
					"stateOfEquipment": {
						"doorWindow": {
							"closed": "est fermé",
							"open": "est ouvert"
						},
						"equipmentCategory": "Catégories d’équipement",
						"equipmentGroup": "Groupes d’équipement",
						"individualEquipment": "Équipement individuel",
						"sensor": {
							"alert": "Capteur en alerte"
						},
						"smartPlug": {
							"off": "Smart plug est ÉTEINT",
							"on": "Smart plug est ALLUMÉ"
						},
						"thermostats": {
							"above": "Au-dessus",
							"below": "En dessous",
							"between": "Entre",
							"enterValue": "Entrer une température",
							"selectAboveValue": "Sélectionner la température maximale",
							"selectBelowValue": "Sélectionner la température minimale"
						},
						"waterHeater": {
							"boost": "Est sur mode Boost",
							"continuous": "Est sur mode continu",
							"off": "Est off",
							"schedule": "Est sur programme"
						}
					},
					"timeOfDay": {
						"endTime": "Heure de fin",
						"endTimeError": "L’heure de fin doit être après l’heure de début",
						"formatError": "Veuillez utiliser le format approprié",
						"specify": "Définir l’heure",
						"startTime": "Heure de début",
						"sunriseSunset": "Lever / coucher du soleil",
						"to": "à"
					},
					"weather": {
						"current": "Température actuelle",
						"forecast": "Prévisions météo"
					}
				}
			},
			"recommended": {
				"addRecommended": "Ajouter une fonctionnalité OneTouch",
				"modal": {
					"titleFormatted": "Appliquer la règle OneTouch '__ruleName__'"
				},
				"smartPlug": {
					"12am": {
						"description": "Éteindre un Smart Plug à minuit",
						"name": "Éteindre à minuit",
						"nameFormatted": "Éteindre à minuit : __name__"
					},
					"oneHour": {
						"description": "Allumer un Smart Plug pendant une heure",
						"name": "Chronomètre une heure",
						"nameFormatted": "Chronomètre une heure : __name__"
					},
					"title": "Smart Plugs",
					"turnOff": {
						"description": "Éteindre un Smart Plug immédiatement",
						"name": "Éteindre",
						"nameFormatted": "Éteindre : __name__"
					}
				},
				"thermostat": {
					"title": "Thermostats",
					"turnOff": {
						"description": "Éteindre un thermostat immédiatement",
						"name": "Éteindre le thermostat",
						"nameFormatted": "Éteindre le thermostat: __name__"
					}
				},
				"title": "Recommandé",
				"waterHeater": {
					"boostFor2": {
						"description": "Allumer le mode Boost pendant deux heures",
						"name": "Mode Boost pendant 2 heures",
						"nameFormatted": "Mode Boost pendant 2 heures : __name__"
					},
					"title": "Chauffe-eau"
				}
			}
		},
		"property": {
			"names": {
				"coolingSetpoint_x100": "Valeur de climatisation",
				"heatingControl": "Réglage de chauffage",
				"temperatureOffset": "Écart de température de la pièce",
				"cylinderConnection": "Connexion cylindre",
				"oUTSensorProbe": "Capteur",
				"oUTSensorType": "Capteur utilisé en hauteur ou au sol",
				"coolingControl": "Réglage de la climatisation",
				"actuatorType": "Type de détecteur",
				"valveProtection": "Protection de la valve",
				"frostSetpoint_x100": "Valeur de température de gel",
				"floorCoolingMin_x100": "Limite du capteur au sol pour la climatisation",
				"floorHeatingMax_x100": "Limite de température supérieure pour le capteur au sol",
				"floorHeatingMin_x100": "Limite de température inférieure pour le capteur au sol",
				"heatingSetpoint_x100": "Valeur de chauffage",
				"holdDuration": "Durée de maintien (minutes)",
				"lEDMode": "Mode LED ",
				"lockKey": "Voulez-vous modifier les paramètres de verrouillage de votre thermostat ?",
				"keyLock": "Voulez-vous modifier les paramètres de verrouillage de votre thermostat ?",
				"maxHeatSetpoint_x100": "Valeur limite chauffage",
				"minCoolSetpoint_x100": "Valeur limite climatisation",
				"networkLANIP": "Adresse IP",
				"networkLANMode": "Network LAN Mode",
				"networkLANRouterAddr": "Routeur",
				"networkLANSubnet": "Masque Subnet",
				"networkPriDNS": "DNS primaire",
				"networkSecDNS": "DNS secondaire",
				"shutOffDisplay": "Éteindre l’affichage LCD",
				"systemMode": "Mode système",
				"temperatureDisplayMode": "Fahrenheit OU Celsius",
				"timeFormat24Hour": "Format heure"
			},
			"values": {
				"actuatorClosed": "Normalement fermé",
				"actuatorOpen": "Normalement ouvert ",
				"alwaysOn": "Toujours allumé",
				"auto": "Auto",
				"celsius": "Celsius",
				"cool": "Climatiser",
				"cylinderConnected": "Capteur cylindre connecté",
				"cylinderNotConnected": "Capteur cylindre non connecté",
				"disabled": "Désactivé",
				"dynamic": "Dynamic",
				"emergencyHeating": "Chauffage d’urgence",
				"enabled": "Activé",
				"fahrenheit": "Fahrenheit",
				"heat": "Chauffer",
				"hour12": "12:00",
				"hour24": "24:00",
				"locked": "Oui, verrouiller",
				"longCycle": "+/- 0,5  degrés C",
				"midCyle": "+/- 0,25 degrés C",
				"no": "Non",
				"numberInCFormatted": "__number__ degrés C",
				"numberInFFormatted": "__number__ degrés F",
				"off": "Éteint",
				"offWhenIdle": "Éteint lorsqu’en veille",
				"on": "Allumé",
				"sensorAir": "Capteur d’air",
				"sensorConnected": "Capteur connecté",
				"sensorDewPointConnected": "Capteur de point de rosée connecté",
				"sensorFloor": "Capteur au sol",
				"sensorNotConnected": "Aucun capteur connecté",
				"shortCyle": "+/- 0",
				"static": "Statique",
				"turnOff": "Éteindre",
				"turnOn": "Allumer",
				"unlocked": "Non, ne pas verrouiller",
				"yes": "Oui"
			}
		},
		"provisioning": {
			"boilerReceiver": "Récepteur chauffe-eau iT600",
			"coMonitor": "Détecteur de monoxyde de carbone",
			"coordinator": "Contrôleur",
			"device": "Appareil contrôlé par Salus",
			"doorSensor": "Capteur porte",
			"energyMeter": "Compteur d’énergie pour toute la maison",
			"gateway": "Passerelle universelle Salus",
			"gatewayNode": "Nœud de passerelle",
			"it530Thermostat": "Thermostat iT530",
			"it600Thermostat": "Thermostat iT600",
			"namedEnergyMonitor": "__name__'s Energy Monitor",
			"optimaThermostat": "Thermostat Optima",
			"smartPlug": "Smart plug",
			"smokeAlarm": "Détecteur de fumée",
			"trv": "VRT iT600",
			"windowSensor": "Capteur fenêtre",
			"wiringCenter": "Panneau de câblage iT600"
		},
		"schedule": {
			"create": {
				"description": "Les programmes font automatiquement fonctionner vos appareils selon les paramètres sélectionnés.",
				"no": "Pas maintenant",
				"question": "Voulez-vous créer un programme pour cet appareil maintenant ?",
				"yes": "Oui, créer un programme"
			},
			"widget": {
				"title": "Schedule"
			}
		},
		"settings": {
			"empty": "Désolé, nous n’avons aucun paramètre à afficher !",
			"networkSettingsSaveConfirmSecondary": "Souhaitez-vous enregistrer vos paramètres de réseaux ?",
			"networksSettingsSaveConfirmPrimary": "Vous avez mis à jour vos paramètres de réseaux. Pour enregistrer, vous devrez restez sur cette page pendant 1 minute.",
			"networksSettingsSavingPrimary": "Nous enregistrons vos paramètres de réseaux. Veuillez rester sur cette page.",
			"networksSettingsSavingSecondary": "Ce processus prendra environ 1 minute.",
			"title": "Paramètres"
		},
		"stackedBarGraph": {
			"time": "Heure",
			"watts": "Watts"
		},
		"status": {
			"alias": "Nom de l’équipement",
			"battery": {
				"charged": "__val__% chargés"
			},
			"monitoring": "Surveillance",
			"thermostat": {
				"lock": "Thermostat verrouillé",
				"unlock": "Thermostat déverrouillé"
			}
		},
		"thermostat": {
			"frostPointModal": {
				"header": "Éteindre le système de CVC",
				"labels": {
					"buttonCancel": "Annuler",
					"buttonTurnOff": "Éteindre le CVC",
					"chooseFrostPoint": "Choisir un point de gel",
					"radioNo": "Non, ne pas configurer de point de gel",
					"radioYes": "Oui, configurer un point de gel à"
				},
				"subHeader": "Voulez-vous configurer une temp. de point de gel ?",
				"tempModeC": "__number__ &#8451;",
				"tempModeF": "__number__ &#8457;"
			},
			"holdPointModal": {
				"header": "Garder la température configurée",
				"holdTitle": "Garder",
				"labels": {
					"btnCancel": "Annuler",
					"btnOk": "Ok",
					"radioScheduleChange": "Jusqu’au prochain changement de programme",
					"radioUntilChange": "Jusqu’à ce que je modifie la température configurée"
				}
			},
			"menus": {
				"modeLabels": {
					"auto": "Auto",
					"cooling": "Climatisation",
					"fan": "Ventilateur",
					"fanOn": "Fan On",
					"followSchedule": "Suivre le programme",
					"heating": "Chauffage",
					"off": "Éteindre",
					"permanentHold": "Toujours garder",
					"systemOff": "Système éteint",
					"temporaryHold": "Garder temporairement"
				}
			}
		},
		"thermostatSingleControl": {
			"createPage": {
				"addButtonText": "Ajouter une nouvelle commande unique",
				"bottomBlurb": "Vous pourrez toujours modifier cette commande unique après l’avoir configurée.",
				"delete": "Supprimer la commande unique",
				"deviceError": "Au moins un appareil doit être connecté au TSC",
				"error": "Un problème est survenu pendant la création du TSC. Veuillez essayer à nouveau",
				"individualControls": "Contrôles individuels",
				"nameError": "Veuillez entrer un nom valide pour votre TSC",
				"newTSCSectionTitle": "Nommer cette commande unique",
				"newTSCText": "p. ex. Chambre à l’étage",
				"thermostatsSectionTitle": "Sélectionnez les thermostats que vous désirez intégrer à cette commande unique.",
				"titleExisting": "Commandes uniques",
				"titleNoExisting": "Configurer une commande unique",
				"typeError": "You cannot mix thermostat model types in a TSC"
			},
			"initialSetup": {
				"description": "Modifiez-en une, modifiez-en plusieurs. Lorem ipsum dolor sit amet, consectetur adipiscing elit. Sed gravida bibendum dictum. Maecenas nec eleifend dui. Suspendisse mollis purus scelerisque maximus ultricies. Nulla a metus arcu. Interdum et malesuada fames ac ante ipsum",
				"prompt": "Voulez-vous configurer une commande unique pour plusieurs thermostats ?",
				"title": "Configurer une commande unique"
			},
			"title": "Commande unique de thermostat"
		},
		"trv": {
			"add": "Add TRV",
			"modal": {
				"title": "Selectionner les VRT pour __name__",
				"tooMany": "Vous pouvez associer jusqu’à 6 VRT à un thermostat"
			},
			"noTrvs": "Aucun VRT n’est actuellement associé à cet appareil",
			"title": "VRT sur ce thermostat"
		},
		"usage": {
			"interactiveMode": "Mode interactif",
			"title": "Utilisation"
		}
	},
	"error404": {
		"backToDash": "Retour à l'accueil",
		"message": "La page que vous recherchez n'a pas pu être trouvée.",
		"title": "Erreur 404"
	},
	"errors": {
		"responseText": "Texte de réponse :",
		"serviceEndpoint": "Point de service :",
		"siteMessage": "Désolé, une erreur est survenue. Veuillez cliquer ici pour essayer à nouveau !",
		"statusCode": "Code de statut :",
		"statusText": "Texte de statut :"
	},
	"key": "client-en",
	"login": {
		"changePasswordWithToken": {
			"button": "Enregistrer le nouveau mot de passe",
			"confirmPasswordLabel": "Confirmer le nouveau mot de passe",
			"message": "Créer un nouveau mot de passe",
			"newPasswordLabel": "Nouveau mot de passe",
			"resetPasswordTokenLabel": "Réinitialiser le jeton du mot de passe"
		},
		"confirm": {
			"emailSent": "Nous vous envoyons un e-mail maintenant pour vous permettre de confirmer votre compte.",
			"headline": "Nous y sommes presque",
			"ready": "Prêt à vous inscrire ?",
			"resend": "Votre compte est presque confirmé, __user_name__ !",
			"thanks": "Merci pour votre inscription, __user_name__ !",
			"trustedSender": "Assurez-vous d’ajouter l’adresse email@salus.com à vos contacts pour recevoir nos mises à jour."
		},
		"forgotPassword": {
			"backToSignInLinkLabel": "Retour à l’inscription",
			"button": "Jeton e-mail temporaire",
			"inputLabel": "E-mail pour ce compte",
			"message": "Vous avez oublié votre mot de passe? "
		},
		"forgotPasswordConfirmation": {
			"button": "Retour au Login",
			"message": "Nous vous avons envoyé la marche à suivre pour réinitialiser votre mot de passe. Veuillez consulter vos e-mails.",
			"title": "Mot de passe oublié"
		},
		"headline": "Bienvenue à\nSalus",
		"login": {
			"accountLink": "Configurer un compte",
			"accountMessage": "Vous n’avez pas encore de compte ?",
			"button": "Inscrivez-vous",
			"emailLabel": "E-mail",
			"error": {
				"accountLocked": "Votre compte a été verrouillé en raison de tentatives de connexion incorrectes. Veuillez attendre 30 minutes avant d’essayer de vous connecter à nouveau.",
				"invalidLanguage": "Veuillez choisir une langue",
				"invalidUsernamePassword": "Votre mot de passe ou votre e-mail est erroné. Veuillez essayer à nouveau."
			},
			"forgotPassword": "Vous avez oublié votre mot de passe ?",
			"keepLoggedIn": "Rester connecté",
			"passwordLabel": "Mot de passe",
			"resendConfirmationEmail": "Envoyer un nouvel e-mail de confirmation",
			"siloMessage": {
				"eu": "Passer à l'appli US",
				"us": "Passer à l'appli UE"
			}
		},
		"pinpad": {
			"authInvalid": "Le Pin que vous avez saisi est invalide",
			"authSuccess": "Pin authentifié",
			"pinRemoveFail": "Impossible de supprimer le Pin",
			"pinRemoved": "Pin supprimé avec succès",
			"setFail": "Impossible de configurer le Pin",
			"setSuccess": "Pin configuré avec succès"
		},
		"resetPassword": {
			"changeFailed": "La tentative de modifier votre mot de passe a échoué",
			"requestNewToken": "Vous devez demander un autre jeton en cliquant sur Vous avez oublié votre mot de passe",
			"title": "Changement de mot de passe échoué.",
			"tokensExpire": "Le jeton expire après 6 heures",
			"tryAgain": "Il est possible de vous deviez essayer à nouveau si le jeton n’est pas entré correctement"
		},
		"sendConfirmationEmail": {
			"backToSignInLinkLabel": "Retour à l’inscription",
			"button": "Envoyer un nouvel e-mail de confirmation",
			"message": "Confirmation du compte"
		},
		"signInWithToken": {
			"button": "Associer appareil",
			"error": {
				"invalidToken": "login.signInWithToken.error.invalidToken"
			},
			"inputLabel": "Code d’activation",
			"message": "Associez cet appareil mobile à votre compte"
		},
		"welcome": {
			"accountLink": "S’inscrire",
			"accountMessage": "Vous avez déjà un compte ?",
			"button": "S’inscrire",
			"message": "Allons-y."
		}
	},
	"messageCenter": {
		"alerts": {
			"alarmSounding": "L'alarme sonne maintenant",
			"alert": "Alerte",
			"criteria": "Critères d’alerte",
			"currentStatus": "Statut actuel",
			"dateTime": "Date et heure",
			"details": "Détails",
			"equipment": "Équipement",
			"subHeader": "Alerts lorem ipsum dolor sit amet alipsis diam.",
			"title": "Alertes"
		},
		"notifications": {
			"subHeader": "Notifications depuis les 90 derniers jours",
			"title": "Notifications"
		},
		"title": "Centre de messages"
	},
	"missingKey": "##############################",
	"myStatus": {
		"addNewGateway": "Ajouter une nouvelle passerelle",
		"addNewStatus": "Ajouter un nouveau statut",
		"makeNewStatus": {
			"createNewOneTouch": "Créer une nouvelle fonctionnalité OneTouch pour ce statut",
			"delete": "Supprimer le statut",
			"deleteWarning": "Supprimer ce statut ?",
			"editName": {
				"name": "Nom"
			},
			"invalidGateway": "Vous utilisez une passerelle invalide. Veuillez changer de passerelle ou ajouter une passerelle valide.",
			"ruleView": {
				"run": "Démarrer dès que le statut est lancé"
			}
		},
		"newStatus": {
			"createStatusTitle": "Créer un nouveau statut",
			"formFields": {
				"continue": "Continuer",
				"statusName": "Nom du statut"
			},
			"giveStatusName": "Nommer ce statut",
			"selectIcon": "Sélectionner une icône pour votre statut",
			"selectIconInstructions1": "Choisissez une icône à partir de votre IT600 et contrôlez votre statut à partir du IT600 ou de l’appli.",
			"selectIconInstructions2": "Choisissez une autre icône pour contrôler votre statut à partir de l’appli.",
			"showLessIcons": "Afficher moins d’icônes",
			"showMoreIcons": "Afficher plus d’icônes"
		},
		"newStatusAdded": "Nouveau statut ajouté",
		"noGatewayMessage": "Aucune passerelle détectée. Veuillez ajouter une passerelle.",
		"title": "Mon statut"
	},
	"schedules": {
		"deviceTypes": {
			"smartPlug": "smart plugs",
			"thermostat": "thermostats",
			"waterHeater": "chauffe-eau"
		},
		"edit": {
			"changeIndividualThermostat": {
				"no": "Non pas seulement celui-là",
				"subtitle": "Désirez-vous appliquer cette modification à tous les thermostats du même modèle ?",
				"title": "Vous allez modifier un paramètre à l’un des thermostats.",
				"yes": "Oui, appliquer cette modification à tous ceux de ce modèle"
			},
			"changeSingleControl": {
				"changeGroup": {
					"no": "Non, pas maintenant",
					"subtitle": "Êtes-vous certain de vouloir le faire maintenant?",
					"title": "Vous allez modifier les paramètres de tous les thermostats de votre commande unique",
					"yes": "Oui, effectuer la modification"
				},
				"changeSingle": {
					"changeJustThermostat": "Modifier ce thermostat seulement",
					"changeSingleControl": "Modifier tous les thermostats dans la commande unique",
					"subtitle": "Désirez-vous apporter cette modification à tous les thermostats dans la commande unique ?",
					"title": "Vous allez modifier les paramètres de l’un des thermostats dans votre commande unique"
				}
			},
			"modal": {
				"addNew": "Ajouter une nouvelle commande unique",
				"deleteLabel": "Supprimer la commande unique",
				"duplicateTstatsErrorBody": "Veuillez vous assurer que le même thermostat ne soit pas coché pour plus d’une commande unique, que toutes les commandes uniques aient un nom et qu’au moins un thermostat soit sélectionné.",
				"duplicateTstatsErrorTitle": "Erreur : Impossible d’enregistrer une ou plusieurs commandes uniques.",
				"emptyIndividualControls": "Aucune commande individuelle n’est disponible",
				"emptySingleControls": "Aucune commande unique n’est disponible",
				"emptyThermostats": "Aucun thermostat n’est disponible",
				"individualLabel": "Commandes individuelles",
				"nameLabel": "Nom de la commande unique",
				"title": "Modifier les commandes uniques du thermostat"
			},
			"previousScreen": "< Programmes prédéfinis",
			"thermostatList": {
				"emptyThermostats": "Aucun thermostat ou commande unique n’est disponible"
			},
			"thermostatSettings": {
				"addInterval": "Ajouter un intervalle",
				"apply": "Appliquer un programme",
				"cancel": "Annuler",
				"description": "Lorem ipsum dolor sit amet, in molestie sententiae pro, an qui sint iuvaret officiis. Aperiri equidem ea vis, eam natum affert vituperata ex, nec ne constituam philosophia.",
				"start": "HEURE DÉBUT",
				"temp": "TEMPÉRATURE"
			}
		},
		"emptyView": {
			"message": "Vous n'avez pas de __type__ sur cette passerelle. Veuillez ajouter __type__ pour définir des programmes correspondants."
		},
		"presets": {
			"description": "Nous avons créé trois programmes prédéfinis en fonction des styles de vie courants. Choisissez-en un des trois ou créez le vôtre.",
			"presetSchedules": {
				"createNew": {
					"description": "Configurez votre propre programme pour que votre foyer fonctionne exactement comme vous le désirez.",
					"title": "Créez votre propre programme"
				},
				"mostlyAway": {
					"description": "Conçu pour ceux qui sont plus souvent partis que chez eux.",
					"title": "Partis la plupart du temps"
				},
				"mostlyHome": {
					"description": "Pour ceux qui sont plus souvent chez eux que partis ?",
					"title": "Chez eux la plupart du temps"
				},
				"workingWeek": {
					"description": "Pour les familles qui travaillent aux horaires classiques, de 9 h à 18 h du lundi au vendredi, et qui passent les weekends à la maison.",
					"title": "Semaine de travail classique"
				}
			},
			"title": "Sélectionnez un programme prédéfini ou créez le vôtre"
		},
		"schedule": {
			"addInterval": "Ajouter un intervalle",
			"columnLabels": {
				"mode": "SYSTEM MODE",
				"startTime": "HEURE DE DÉBUT",
				"temperature": "TEMPÉRATURE"
			},
			"deleteInterval": "Supprimer un intervalle",
			"newInterval": {
				"add": "Ajouter",
				"mode": {
					"cool": "Climatiser",
					"heat": "Chauffer",
					"off": "Éteint",
					"on": "Allumé",
					"title": "Mode :"
				},
				"startTime": "Heure de début",
				"temperature": "Température",
				"temperatureError": "Temperature non valide. Veuillez saisir un nombre compris entre __floor__ et __ceiling__. Les décimales doivent terminer par 0 ou 5",
				"timeError": "L'heure saisie n'est pas valide. Veuillez saisir une heure au format format hh:mm am/pm",
				"title": "Ajouter un nouvel intervalle",
				"update": "Mettre à jour"
			},
			"noIntervals": "Il n'y a aucun intervalle dans ce programme.",
			"weekConfigurations": {
				"MO-FR": "LUN - VEN",
				"MO-SU": "LUN - DIM",
				"SA-SU": "SAM - DIM"
			},
			"weekDropdown": {
				"daily": "Quotidien",
				"fullWeek": "À la maison la plupart du temps / LU-DI",
				"workWeek": "Semaine de travail / LU-VE et SA+DI"
			}
		},
		"smartPlug": {
			"title": "Programme Smart Plug"
		},
		"thermostat": {
			"duplicateSchedule": {
				"description": "Pour quel(s) autre(s) thermostat(s) voudriez-vous reproduire ce programme ?",
				"duplicate": "Reproduire",
				"error": "Vous devez avoir des entrées de programme pour reproduire un programme. Vérifiez que vous avez enregistré votre programme",
				"title": "Reproduire le programme"
			},
			"instructions": "Sélectionnez le type de programme que vous voudriez créer pour cette commande unique",
			"selectionTitle": "Choisissez une configuration de programme",
			"subtitle": "Créez votre propre programme",
			"title": "Programme de thermostat"
		},
		"waterHeater": {
			"title": "Programme de chauffe-eau"
		}
	},
	"settings": {
		"about": {
			"buildDateTitle": "Date de création",
			"companyName": "Salus Controls Inc.",
			"companyTitle": "Entreprise",
			"copyrightFormatted": "© __currentYear__ Salus Controls Inc.",
			"releasedTitle": "Publié",
			"versionTitle": "Version"
		},
		"dataCollection": {
			"options": {
				"off": "Vous pouvez toujours éteindre la collecte de données. Si vous l’éteignez, l’application sera automatiquement désactivée et votre appareil mobile ou votre ordinateur ne pourra plus être utilisé pour gérer votre équipement et le service. Il vous sera toujours possible de gérer votre équipement manuellement.  Veuillez vous référer au guide de l’utilisateur de l’équipement pour connaître la marche à suivre.",
				"on": "Nous vous recommandons de garder cette fonctionnalité ALLUMÉE. Les données collectées à partir de votre appareil mobile sont utilisées pour faire fonctionner l’application, les services connectés à votre domicile et pour vous envoyer des alertes et des avis importants.",
				"optionPrefix": "La collecte de données est",
				"referUserGuide": "Vous pouvez toujours gérer votre équipement manuellement. Reportez-vous aux instructions du manuel d'utilisation de votre équipement."
			},
			"subheader": "Vous avez choisi d’éteindre la collecte de données. Vous avez ainsi désactivé l’application. Veuillez RALLUMER la collecte de données pour continuer à utiliser l’application",
			"title": "Collecte de données"
		},
		"manageDevices": {
			"devices": {
				"addShare": "Connecter un appareil mobile",
				"deleteShareModal": "Vous allez supprimer",
				"deleteUser": "Supprimer l’utilisateur",
				"description": "Vous pouvez partager vos appareils SalusConnect avec autant de personnes que vous le désirez. Vous contrôlez ce que vos invités peuvent voir et consulter.",
				"empty": "Nous n’avez partagé votre compte avec aucun invité.",
				"formHeader": "Connecter un appareil mobile",
				"formLabels": {
					"countrySelect": "Pays",
					"deselectAll": "Déselectionner tout",
					"deviceListHeader": "Donner à cet invité accès à :",
					"email": "Adresse e-mail",
					"emptyDevices": "Aucun appareil disponible",
					"firstName": "Prénom",
					"lastName": "Nom",
					"name": "Nom ou alias de l’appareil",
					"selectAll": "Sélectionner tout"
				},
				"header": "Partage de compte"
			},
			"gateway": {
				"addGateway": "Ajouter une passerelle",
				"description": "",
				"empty": "Vous n’avez connecté aucune passerelle.",
				"header": "Passerelle"
			},
			"title": "Gérer le compte"
		},
		"profile": {
			"changePassword": {
				"formFields": {
					"confirmPassword": "Confirmer le mot de passe",
					"newPassword": "Nouveau mot de passe",
					"oldPassword": "Ancien mot de passe"
				},
				"passwordRequirements": "Les mots de passe doivent comprendre 6 à 14 caractères, dont un chiffre (0 - 9) ou un symbole, une minuscule (a - z), et une majuscule (A - Z).",
				"title": "Changer le mot de passe"
			},
			"deleteProfile": "Supprimer le profil d’utilisateur",
			"deleteProfileErrorMsg": "Une erreur est survenue pendant la suppression de l’utilisateur. Veuillez essayer à nouveau plus tard.",
			"deleteProfileWarningLine1": "Supprimer votre profil d’utilisateur ?",
			"deleteProfileWarningLine2": "Cette opération ne peut être annulée.",
			"formFields": {
				"email": "Adresse e-mail",
				"emailConfirm": "Confirmer l'adresse e-mail",
				"firstName": "Prénom",
				"languageSelect": "Langue",
				"lastName": "Nom",
				"submitButton": "Envoyer"
			},
			"title": "Modifier le profil"
		}
	},
	"setupWizard": {
		"headline": "Bienvenue à Salus !",
		"landing": {
			"createProfile": {
				"active": "Votre profil a été créé."
			},
			"equipmentConnect": {
				"button": "Connecter l’équipement",
				"inactive": "Connectez votre équipement à la passerelle maintenant."
			},
			"equipmentShare": {
				"button": "Partager l’équipement",
				"inactive": "Partagez votre équipement en donnant accès à votre famille et vos amis."
			},
			"gatewayConnect": {
				"active": "Votre passerelle est maintenant activée et prête à être connectée à votre équipement.",
				"button": "Activer la passerelle",
				"inactive": "Activez votre passerelle pour commencer à utiliser vos appareils."
			},
			"header": {
				"connect": "Connecter l’équipement à la passerelle",
				"gateway": "Activez votre passerelle"
			},
			"subHeaderHtml": {
				"connect": "Bravo ! Votre profil est créé et votre passerelle est activée.<br/>Il ne reste maintenant qu’à connecter les appareils et votre équipement à la passerelle.",
				"gateway": "Bravo ! Votre profil est créé et votre passerelle est activée."
			}
		},
		"newUserForm": {
			"cookieModal": {
				"information": "Les cookies permettent au site Web de Salus de fonctionner correctement. Nous ne les utilisons que pour conserver les informations de connexion, vous offrir un accès sécurisé, recueillir des statistiques et optimiser les fonctionnalités. Vous ne pouvez continuer sans avoir cliqué sur Accepter. Veuillez consulter notre __privacy_policy__ pour de plus amples renseignements."
			},
			"equipment": "Avez-vous la passerelle ?",
			"formFields": {
				"countrySelect": "Pays",
				"email": "Adresse e-mail",
				"emailConfirm": "Confirmer l'adresse e-mail",
				"firstName": "Prénom",
				"languageSelect": "Langue",
				"lastName": "Nom",
				"password": "Mot de passe",
				"passwordConfirm": "Confirmer le mot de passe",
				"phone": "Numéro de téléphone",
				"phoneType": "Type de téléphone",
				"privacyPolicyLabel": "J’accepte les contrôles de Salus",
				"privacyPolicyLinkLabel": "Politique de confidentialité",
				"submitButton": "Créer mon profil",
				"termsAndConditionsLabel": "J’accepte les contrôles de Salus",
				"termsAndConditionsLinkLabel": "Modalités et conditions"
			},
			"header": "La configuration est très simple.",
			"passwordRequirements": "Les mots de passe doivent comprendre 6 à 14 caractères, dont un chiffre (0 - 9) ou un symbole, une minuscule (a - z), et une majuscule (A - Z).",
			"phoneTypes": {
				"phone": "Téléphone",
				"tablet": "Tablette"
			},
			"subheader": "Créez votre profil",
			"tooltip": {
				"equipment": "Permet d'envoyer un signal à votre équipement pour que vous puissiez y accéder à distance."
			}
		},
		"pairing": {
			"buttonText": "Recherche d’équipement",
			"header": "Bienvenue! Faisons la connexion de votre équipement",
			"noCoordinator": "Aucun contrôleur",
			"paragraphHtml": "En vue de connecter votre équipement, veuillez vous assurer que tout est allumé.<ol><li>Pour commencer, trouvez le bouton de chaque appareil. Ne l’enfoncez pas encore. Si vous ne trouvez pas le bouton de l’équipement, veuillez vous référer au guide de l’utilisateur.</li><li>Ensuite, vous devrez cliquer sur le bouton orange “Recherche d’équipement” ci-dessous. Remarque : Une fois que vous aurez cliqué sur “Recherche d’équipement” vous n’aurez que deux minutes pour enfoncer le bouton décrit à l’étape 1. Maintenez ce bouton enfoncé pendant 3 à 5 secondes.</li><li>Répétez ces étapes jusqu’à ce que tous vos appareils apparaissent ci-dessous. Si, après avoir répété la marche à suivre, vous ne voyez toujours pas apparaître tous vos appareils, veuillez prendre contact avec le service client.</li></ol>",
			"requiresCoordinator": "Pour détecter un appareil, le contrôleur doit être enregistré sur la passerelle. Veuillez essayer d’enregistrer la passerelle à nouveau."
		},
		"provisioning": {
			"customize": {
				"access": "Accès",
				"accessInfo": "Désirez-vous permettre à une autre personne d’accéder à cet appareil ? Si oui, cliquez ci-dessous.",
				"clampsError": "Vous devez sélectionner 3 brides.",
				"clampsReading": "Sélectionnez les brides que vous utilisez",
				"completeSetup": "Terminer la configuration",
				"continueSetupEquipment": "Continuer la configuration de l’équipement",
				"energyMonitor": "Configuration du compteur d’énergie de toute la maison",
				"noShares": "Aucun utilisateur partagé disponible actuellement. Vous serez en mesure de partager votre équipement en tout temps une fois la configuration terminée.",
				"oneTouch": "OneTouch",
				"oneTouchInfo": "La fonctionnalité OneTouch vous permet d’utiliser et/ou de créer des alertes pour un ou plusieurs appareil(s) en un seul toucher. Nous avons pré-sélectionné des options qui pourraient répondre à vos besoins. Si elles ne vous conviennent pas, il vous suffit de déselectionner la fonctionnalité OneTouch et d’en choisir une autre. Il vous sera toujours possible d’effectuer les modifications relatives à la fonctionnalité OneTouch plus tard.",
				"oneTouchPreselected": "Nous avons présélectionné des options qui pourraient correspondre à vos besoins. Si elles ne vous plaisent pas, décochez simplement la fonctionnalité One Touch ou choisissez-en une différente. Vous pouvez toujours modifier les fonctionnalités One Touch ultérieurement.",
				"phasesReading": "Combien de phases?",
				"pin": "Voulez-vous épingler cet appareil à votre tableau de bord ?",
				"pinHeader": "Épingle",
				"pinInfo": "Une épingle vous permet de placer les éléments les plus importants sur votre tableau de bord pour y accéder rapidement et facilement.",
				"selectAnother": "Sélectionnez l’appareil suivant.",
				"selectPhases": "Sélectionnez les phases",
				"selectVoltage": "Sélectionnez le voltage",
				"selectWhich": "Choisissez l’appareil avec lequel vous voudriez commencer.",
				"setupEquipment": "Configurons votre équipement",
				"success": {
					"mobile": {
						"description": "Vous recherchez une appli pratique ? Téléchargez la nôtre pour vos appareils dès maintenant. Disponible sur iTunes ou GooglePlay.",
						"link": "Téléchargez l’appli",
						"title": "L’appli mobile"
					},
					"myDashboard": {
						"description": "Consultez votre nouveau tableau de bord. Vous pourrez voir en un seul coup d'œil tous vos appareils et gérer votre maison sans effort sur un même écran. Il vous sera possible d’ajouter d’autres appareils au tableau de bord plus tard.",
						"link": "Aller à mon tableau de bord",
						"title": "Mon tableau de bord"
					},
					"title": "Bravo !\nVous avez terminé la configuration."
				},
				"successfullySetup": "Bravo ! Vous avez terminé la configuration.",
				"voltageReading": "Quel est votre voltage ?"
			},
			"naming": {
				"nowConnected": "L’équipement ci-dessous est maintenant connecté à votre passerelle. Veuillez nommer votre équipement.",
				"success": "Bravo !",
				"textbox": "Nommer cet équipement (p. ex. : thermostat chambre à coucher)"
			},
			"select": {
				"connect": "Connecter l’équipement",
				"currentlyScanning": "Recherche d’appareils...",
				"letsConnect": "Effectuons la connexion de votre équipement",
				"notFound": "Désolé, aucun appareil n’a été trouvé",
				"select": "Cochez la case à côté de chaque appareil que vous désirez connecter maintenant. Cliquez sur \"Connecter équipement\".",
				"selectError": "Veuillez sélectionner au moins un appareil avant de continuer"
			}
		},
		"subheader": "Lors de votre première utilisation, vous devrez suivre quelques étapes simples pour pouvoir gérer votre compte et votre équipement.<br/>Commençons la configuration de votre nouveau système."
	}
}							
