{
	"common": {
		"brand": "Salus",
		"countries": {
			"cz": "Чешская Республика",
			"de": "Германия",
			"dk": "Дания",
			"es": "Испания",
			"fr": "Франция",
			"hu": "Венгрия",
			"it": "Италия",
			"nl": "Нидерланды",
			"no": "Норвегия",
			"pl": "Польша",
			"ro": "Румыния",
			"ru": "Россия",
			"sk": "Словакия",
			"sl": "Словения",
			"sv": "Швеция",
			"uk": "Великобритания",
			"us": "Соединенные Штаты Америки"
		},
		"daysOfWeek": {
			"abbreviations": {
				"friday": "Пт",
				"monday": "Пн",
				"saturday": "Сб",
				"sunday": "Вс",
				"thursday": "Чт",
				"tuesday": "Вт",
				"wednesday": "Ср"
			}
		},
		"footer": {
			"copyrightText": "Salus Controls, Inc. Все права защищены.",
			"privacyPolicy": "Политика конфиденциальности",
			"termsAndConditions": "Условия и положения"
		},
		"header": {
			"about": "Об этом приложении",
			"allEquipment": "Все оборудование",
			"contactSupport": "Обратиться в службу поддержки",
			"dataCollection": "Сбор данных",
			"equipment": "Оборудование",
			"faq": "FAQ",
			"gateways": "Шлюзы",
			"help": "Помощь",
			"home": "На главную",
			"logout": "Выход",
			"messageCenter": "Центр сообщений",
			"myStatus": "Мой статус",
			"oneTouch": "OneTouch",
			"profile": "Профиль",
			"settings": "Настройки",
			"setupEquipment": "Настройка оборудования"
		},
		"labels": {
			"accept": "Принять",
			"apply": "Применить",
			"back": "Назад",
			"cancel": "Отмена",
			"close": "Закрыть",
			"create": "Создать",
			"daily": "Ежедневно",
			"delete": "Удалить",
			"edit": "Редактировать",
			"email": "Эл. почта",
			"enable": "Включить",
			"finished": "Завершено",
			"monthly": "Ежемесячно",
			"next": "Далее",
			"no": "Нет",
			"off": "Выкл.",
			"ok": "ОК",
			"on": "Вкл.",
			"save": "Сохранить",
			"saved": "Сохранено",
			"select": "Выбрать элемент",
			"set": "Задать",
			"skip": "Пропустить",
			"turnOff": "Выключить",
			"turnOn": "Включить",
			"weekly": "Еженедельно",
			"yearly": "Ежегодно",
			"yes": "Да"
		},
		"languages": {
			"cs": "Чешский",
			"da": "Датский",
			"de": "Немецкий",
			"en-uk": "Английский (Великобритания)",
			"en-us": "Английский (США)",
			"es": "Испанский",
			"fr": "Французский",
			"hu": "Венгерский",
			"it": "Итальянский",
			"nl": "Голландский",
			"no": "Норвежский",
			"pl": "Польский",
			"ro": "Румынский",
			"ru": "Русский",
			"sk": "Словацкий",
			"sl": "Словенский",
			"sv": "Шведский"
		},
		"lessDetails": "Менее подробно",
		"loadingMessage": "Salus загружается...",
		"months": {
			"april": "Апрель",
			"august": "Август",
			"december": "Декабрь",
			"february": "Февраль",
			"january": "Январь",
			"july": "Июль",
			"june": "Июнь",
			"march": "Март",
			"may": "Май",
			"november": "Ноябрь",
			"october": "Октябрь",
			"september": "Сентябрь"
		},
		"moreDetails": "Подробнее",
		"symbols": {
			"celsius": "&#8451;",
			"fahrenheit": "&#8457;"
		},
		"validation": {
			"ayla": {
				"cantbeblank": "Это поле не может быть пустым.",
				"confirmaccountbeforecontinue": "Пожалуйста, подтвердите учетную запись прежде чем продолжить",
				"hasalreadybeentaken": "Этот адрес электронной почты уже занят",
				"isinvalid": "Это поле является недопустимым",
				"tokeninvalid": "Этот маркер является недопустимым",
				"useridisalreadygratnedforthatresource": "Этот адрес электронной почты уже занят"
			},
			"default": {
				"requiredField": "Это поле является обязательным"
			},
			"email": {
				"alreadyConfirmed": "Этот адрес электронной почты уже подтвержден.",
				"notFound": "Не удалось найти учетную запись с таким адресом электронной почты",
				"notMatching": "Введенные вами адреса электронной почты не совпадают",
				"notValid": "Введенный вами адрес электронной почты является недействительным"
			},
			"integerRangeFormatted": "Целое между __min__ и __max__",
			"ipAddress": "Этот адрес является недействительным. Пожалуйста, используйте форму x.x.x.x",
			"mobile": {
				"notValid": "Это недействительный номер телефона.",
				"selectCountry": "Пожалуйста, выберите сначала страну."
			},
			"numberRangeFormatted": "Число между __min__ и __max__",
			"passwords": {
				"notMatching": "Пароли не совпадают",
				"tooLong": "Пароли не должны быть длиннее четырнадцати символов",
				"tooShort": "Пароли должны быть не менее шести символов",
				"tooSimple": "Этот пароль слишком простой"
			},
			"postcode": {
				"notValid": "Неверный почтовый индекс"
			},
			"wordsOnly": "Это поле поддерживает только словесные символы (цифры запрещены).",
			"zip": {
				"notValid": "Этот индекс является недопустимым. Должно быть не более 9 цифр."
			}
		}
	},
	"dashboard": {
		"addGateway": "Добавить новый шлюз",
		"header": {
			"addAPhoto": "Добавить фото",
			"cancelScan": "Отменить сканирование?",
			"choosePhoto": "Выбрать фото из библиотеки",
			"scanComplete": "Сканирование завершено",
			"scanMyHome": "Сканировать мой дом",
			"scanned": "просканировано",
			"scanning": "Сканирование...",
			"takeAPhoto": "Сделать снимок"
		},
		"welcomeTile": {
			"description": "Эта панель позволяет вам управлять вашим оборудованием. Вы можете закрепить ваше оборудование, использовать технологию OneTouch и многое другое, чтобы легко управлять вашим домом с одного экрана.",
			"title": "Добро пожаловать в нашу панель управления!"
		}
	},
	"email": {
		"dynamic_body": {
			"title": "Привет, [[user_name]]"
		},
		"footer": {
			"legalText": "",
			"salusCompanyAddress": "850 Main St, Redwood City, CA 94063",
			"salusCompanyName": "Salus Controls, Inc",
			"salusCopyRightHTML": "&copy; Salus Inc. 2016",
			"salusWebSiteText": "www.salusinc.com",
			"salusWebSiteUrl": "http://www.salusinc.com"
		},
		"guest_signup_confirmation": {
			"buttonText": "Подтвердить учетную запись",
			"contentBottomHTML": "<p>Добро пожаловать в Salus Connected Solutions!</p>",
			"contentTopHTML": "<p>Вы получили приглашение на доступ к учетной записи [primary user] Salus. Пожалуйста, подтвердите вашу гостевую учетную запись как можно скорее. У вас есть 30 дней.</p>",
			"emailSubject": "Пожалуйста, подтвердите ваш гостевой доступ Salus",
			"title": "Добро пожаловать, [[user_name]]!"
		},
		"password_reset": {
			"buttonText": "Сбросить пароль",
			"contentBottomHTML": "<p>Если вы не запрашивали сброс пароля или передумали, то вы можете проигнорировать это сообщение. Никаких действий не требуется.</p><p>Возникли вопросы или нужна помощь? На странице службы поддержки вы найдете много полезной информации.</p><p>Ваша команда Salus Connected Solution</p>",
			"contentTopHTML": "<p>Мы получили ваш запрос на сброс пароля. Пожалуйста, сбросьте пароль прямо сейчас. Ваш запрос истекает через 6 часов, и вы можете воспользоваться этой ссылкой только один раз.</p>",
			"emailSubject": "Ваш запрос на сброс пароля",
			"title": "Привет, [[user_name]]"
		},
		"resource_share": {
			"emailBodyHTML": "[[share_owner_user_name]] предоставил(а) вам [[share_operation]] доступ к [[share_resource_name]] с ID: [[share_resource_id]]",
			"emailSubject": "[[share_owner_user_name]] предоставил(а) вам [[share_operation]] доступ к [[share_resource_name]]. Ваш ID: [[share_resource_id]]",
			"title": "Привет, [[share_target_user_name]]"
		},
		"signup_confirmation": {
			"buttonText": "Подтвердить учетную запись",
			"contentBottomHTML": "",
			"contentTopHTML": "<p>Спасибо, что создали профиль. Пожалуйста, подтвердите вашу учетную запись прямо сейчас. У вас есть 30 дней.</p><p>Как только вы подтвердите вашу учетную запись, мы поможем вам выполнить настройку.</p><p>Добро пожаловать в Salus Connected Solutions!</p>",
			"emailSubject": "Пожалуйста, подтвердите вашу учетную запись Salus",
			"title": "Добро пожаловать, [[user_name]]!"
		},
		"trigger_app": {
			"title": "Привет, [[user_name]]"
		}
	},
	"equipment": {
		"common": {
			"firmVer": "Версия прошивки:",
			"mac": "MAC-адрес:",
			"model": "Модель:",
			"serialNum": "Серийный №:"
		},
		"delete": {
			"equipmentDontWorry": "Не беспокойтесь, вы всегда сможете добавить это позже.",
			"gatewayWarning": "Однако, любые службы, связанные с этим шлюзом, также будут удалены.",
			"removeEquipment": "Удалить оборудование",
			"removeEquipmentFormatted": "Удалить __modelTypeName__",
			"removeSharedEquipmentFormatted": "Удалить общее оборудование __modelTypeName__",
			"sharesDontWorry": "Не беспокойтесь, вы всегда сможете добавить их позже.",
			"warning": "Вы собираетесь удалить __product_name__"
		},
		"dialog": {
			"body": "Выберите один из следующих вариантов:",
			"changeAllDevicesFormatted": "Поменять все устройства __modelTypeName__",
			"changeThisDevice": "Поменять только это",
			"checkboxDoNotShowAgain": "Больше не показывать",
			"titleFormatted": "Вы собираетесь изменить настройки одного __modelTypeName__"
		},
		"error": {
			"deviceOffline": "Устройство не в сети",
			"eMeterGraphError": "При загрузке графика возникла проблема, нажмите здесь, чтобы перезагрузить",
			"syncError": "Не удалось синхронизировать свойства для __device__",
			"tryAgain": "Пожалуйста, проверьте состояние вашего устройства и попробуйте еще раз позднее."
		},
		"gateway": {
			"address": {
				"addressLabel": "Адрес",
				"cityLabel": "Город",
				"header": "Адрес, по которому установлено ваше оборудование",
				"postcodeLabel": "Почтовый индекс",
				"stateLabel": "Штат",
				"zipLabel": "Индекс"
			},
			"deviceInputLabel": "Имя шлюза",
			"deviceSerialNumber": "Серийный номер шлюза",
			"error": {
				"invalidDeviceSerialNumber": "Шлюз не найден. Пожалуйста, попробуйте нажать кнопку на шлюзе, а затем снова нажмите кнопку обновления поиска.",
				"registrationFailedNoNodes": "Ошибка конфигурации шлюза. Пожалуйста, подождите две минуты и повторите попытку.",
				"registrationFailedUnknown": "Ошибка регистрации шлюза. Пожалуйста, попробуйте еще раз.",
				"registrationTimeout": "Срок действия окна регистрации истек. Пожалуйста, нажмите еще раз кнопку на шлюзе."
			},
			"header": "Активируйте ваш шлюз",
			"instruction": "Когда светодиод на вашем шлюзе загорается синим, нажмите кнопку \"Найти шлюз\" ниже. Серийный номер шлюза должен появиться автоматически.",
			"searchButton": "Найти шлюз",
			"subheader": "Убедитесь, что ваш шлюз подключен к модему с помощью Ethernet-кабеля.",
			"submitButton": "Активировать мой шлюз"
		},
		"history": {
			"headers": {
				"date": "Дата",
				"event": "Событие",
				"time": "Время",
				"user": "Пользователь"
			},
			"title": "История"
		},
		"information": {
			"headers": {
				"connection": "Подключено",
				"dsn": "Серийный №",
				"firmware": "Версия прошивки",
				"mac": "MAC-адрес",
				"oem": "Модель",
				"version": "Версия ПО"
			},
			"title": "Информация"
		},
		"it600Warnings": {
			"Error01": "Ошибка 01: Аппаратные проблемы между терморегулирующим вентилем и термостатом",
			"Error02": "Ошибка 02: Перегрев напольного датчика термостата",
			"Error03": "Ошибка 03: Напольный датчик термостата не закрыт",
			"Error04": "Ошибка 04: Короткое замыкание напольного датчика термостата",
			"Error05": "Ошибка 05: Термостат потерял связь с координатором",
			"Error06": "Ошибка 06: Термостат потерял связь с центром коммутации",
			"Error07": "Ошибка 07: Термостат потерял связь с терморегулирующим вентилем",
			"Error08": "Ошибка 08: Термостат потерял связь с Приемником 1",
			"Error09": "Ошибка 09: Термостат потерял связь с Приемником 2",
			"Error21": "Ошибка 21: Терморегулирующий вентиль в паре с термостатом потеряли связь с координатором",
			"Error22": "Ошибка 22: Низкий заряд батареи терморегулирующего вентиля в паре с термостатом",
			"Error23": "Ошибка 23: Термостат получил сообщение от непарного терморегулирующего вентиля, либо терморегулирующий вентиль получил сообщение от непарного термостата",
			"Error24": "Ошибка 24: Термостат получил отказ от центра коммутации",
			"Error25": "Ошибка 25: Термостат потерял связь с родительским объектом",
			"Error30": "Ошибка 30: Проблема в оборудовании терморегулирующего вентиля в паре с термостатом",
			"Error31": "Ошибка 31: Проблема с внедрением терморегулирующего вентиля в паре с термостатом",
			"Error32": "Ошибка 32: Низкий заряд батареи термостата",
			"modal": {
				"title": "Текущие ошибки IT600"
			}
		},
		"myEquipment": {
			"categories": {
				"noEquipment": "У вас не установлено оборудование данного типа.",
				"schedules": {
					"scheduleButton": "Создать расписание",
					"scheduleText": "Создать расписание сейчас",
					"smartPlugs": "Расписания автоматически запускают ваши датчики Smart Plug с пользовательскими настройками. Используйте рекомендуемые по умолчанию расписания, либо задайте собственные.",
					"thermostats": "Расписания автоматически запускают системы охлаждения или отопления вашего термостата с пользовательскими настройками. Используйте рекомендуемые по умолчанию расписания, либо задайте собственные.",
					"waterHeaters": "Расписания автоматически запускают водонагреватели с пользовательскими настройками. Используйте рекомендуемые по умолчанию расписания, либо задайте собственные."
				},
				"thermostats": {
					"createTsc": "Добавить новую единую систему управления",
					"individualControls": "Индивидуальные элементы управления",
					"singleControls": "Единая система управления",
					"thermostatsIn": "Термостаты в"
				},
				"title": "Категории",
				"types": {
					"carbonMonoxideDetectors": "Детекторы угарного газа",
					"doorMonitors": "Дверные датчики",
					"energyMeters": "Электросчетчики ",
					"gateways": "Шлюзы",
					"smartPlugs": "Датчики Smart Plug",
					"smokeDetectors": "Датчики дыма",
					"thermostats": "Термостаты",
					"trvs": "Терморегулирующие клапаны радиатора",
					"waterHeaters": "Водонагреватели",
					"windowMonitors": "Оконные датчики",
					"wirelessUncontrollableDevices": "Беспроводные неконтролируемые устройства"
				}
			},
			"groups": {
				"addNewEquipment": "Добавить новое оборудование",
				"addNewGroup": "Добавить новую группу",
				"groupEquipment": "Группировать оборудование",
				"success": "Успех!",
				"successMessage": "Вы удачно создали единую систему управления для вашего термостата.",
				"title": "Группы",
				"ungrouped": "Разгруппированное оборудование"
			},
			"newGroup": {
				"createError": "При создании группы возникла проблема. Пожалуйста, попробуйте еще раз",
				"delete": {
					"linkText": "Удалить группу",
					"modalLabel": "Вы собираетесь удалить группу",
					"warning": "Не переживайте, устройства останутся в вашей учетной записи, и вы всегда сможете заново создать группу."
				},
				"deviceError": "В группе должно быть по крайней мере одно устройство",
				"empty": "К сожалению, у вас нет ни одного устройства для отображения!",
				"nameError": "Пожалуйста, введите допустимое имя группы",
				"newGroupText": "Имя группы оборудования",
				"newGroupTitle": "Дайте вашей группе имя",
				"pageTitle": "Группировка оборудования",
				"selectEquipmentTitle": "Выберите оборудование, которое вы бы хотели добавить в эту группу",
				"updateError": "При обновлении группы возникла проблема. Пожалуйста, попробуйте еще раз"
			},
			"subHeader": "Организуйте ваше оборудование как вам угодно — по категории, местоположению или любым другим способом.",
			"title": "Мое оборудование"
		},
		"names": {
			"carbonMonoxideDetector": "Детектор CO",
			"coordinatorDevice": "Координирующее устройство",
			"doorMonitor": "Дверной детектор",
			"energyMeter": "Электросчетчик",
			"gateway": "Шлюз",
			"gatewayNode": "Шлюзовой узел",
			"generic": "Оборудование",
			"iT600BoilerReceiver": "Расширительный бачок котла",
			"iT600Thermostat": "Термостат IT600",
			"iT600Trv": "Терморегулирующий вентиль радиатора",
			"iT600WiringCenter": "Центр коммутации",
			"miniSmartPlug": "Датчик Smart Plug",
			"smartPlug": "Датчик Smart Plug",
			"smokeDetector": "Датчик дыма",
			"thermostat": "Термостат",
			"waterHeater": "Водонагреватель",
			"windowMonitor": "Оконный датчик"
		},
		"oneTouch": {
			"automations": {
				"addNew": "Добавить новую систему OneTouch",
				"added": "Система OneTouch добавлена",
				"title": "OneTouch"
			},
			"create": {
				"criteriaSection": "Задайте правила",
				"defaultRuleName": "Новое правило системы OneTouch __ruleNum__",
				"include": "Включить эту систему OneTouch в статус?",
				"missingCriteriaError": "Пожалуйста, выберите по крайней мере одно действие",
				"nameSection": "Дайте имя этой системе OneTouch",
				"nameTextbox": "Например, Свет на крыльце",
				"pin": {
					"pinText": "Прикрепить",
					"subtitle": "Вы хотите прикрепить эту систему OneTouch к вашей панели инструментов?",
					"unpinText": "Не прикреплять"
				},
				"subtitle": "",
				"title": "Создать новую систему OneTouch"
			},
			"criteria": {
				"andWhen": "и когда",
				"buttonPress": "Нажата кнопка Запустить сейчас",
				"dayOfWeek": {
					"everyday": "Ежедевно",
					"prefix": "День недели: __val__",
					"weekdays": "Будни",
					"weekends": "Выходные"
				},
				"doThis": "делать это",
				"orWhen": "или когда",
				"propVal": {
					"doorWindow": {
						"closed": "закрыто",
						"open": "открыто"
					},
					"generic": "Установить __device_name__ на __val__",
					"is": "__val__",
					"isBetween": "между __lower_val__ и __upper_val__",
					"isGreaterThan": "больше чем __val__",
					"isLessThan": "меньше чем __val__",
					"sensor": {
						"alerting": "оповещение"
					},
					"smartPlug": {
						"action": "__device_name__ __val__",
						"off": "ВЫКЛ.",
						"on": "ВКЛ."
					},
					"thermostat": {
						"action": "Установить __device_name__ на __val__",
						"auto": "Автоматический режим",
						"cooling": "Режим охлаждения",
						"decreaseBy": "понизить на __val__ градусов",
						"degrees": "градусы",
						"fanAuto": "Вентилятор авто.",
						"fanOn": "Вентилятор вкл.",
						"heating": "Режим обогрева",
						"increaseBy": "увеличить на __val__ градусов",
						"off": "Выкл."
					},
					"waterHeater": {
						"action": "Установить __device_name__ на __val__",
						"boost": "форсировать",
						"continuous": "непрерывный",
						"off": "выкл.",
						"schedule": "запланированный"
					}
				},
				"sendAlert": {
					"email": {
						"prefix": "Отправить эл. письмо на адрес __val__",
						"sendEmail": "Отправить эл. письмо"
					},
					"sms": {
						"prefix": "Отправить SMS на телефон __val__",
						"sendSMS": "Отправить SMS"
					}
				},
				"sorry": "извините",
				"thenDoThis": "то сделать это",
				"thenDoThisLater": "то сделать это позже",
				"timeOfDay": {
					"prefix": "Время дня __val__",
					"suffix": "на __val__"
				},
				"timer": {
					"baseTime": "__property_actions__ через __time_string__",
					"combined": "__hour_string__ и __min_string__",
					"hour": {
						"hour": "__time__ ч",
						"hours": "__time__ ч"
					},
					"min": {
						"minute": "__time__ мин",
						"minutes": "__time__ мин"
					},
					"now": "__property_actions__ сейчас"
				},
				"unsupported": "Ваш критерий правила в настоящее время не поддерживается",
				"when": "когда"
			},
			"details": {
				"addToDash": "Добавить на панель управления:",
				"delete": {
					"modalText": "Система OneTouch перестанет работать и будет удалена из всех ваших статусов.",
					"oneTouch": "Вы собираетесь удалить __one_touch__"
				},
				"includedIn": "Включено в:",
				"runNow": "Запустить сейчас"
			},
			"edit": {
				"title": "Редактировать систему OneTouch"
			},
			"emails": {
				"subjectFormatted": "Было активировано правило __ruleName__ системы OneTouch",
				"usernameFormatted": "__firstname__ __lastname__"
			},
			"menus": {
				"doThis": {
					"header": "ДЕЛАТЬ ЭТО",
					"notifyMe": {
						"contactMenu": {
							"addNew": "Добавить новый",
							"addNewContact": "Добавить новый контакт",
							"countryCode": "Страна",
							"email": "Адрес электронной почты",
							"emailConfirm": "Пожалуйста, подтвердите адрес электронной почты",
							"emailOptional": "Адрес электронной почты (необязательно)",
							"mobilePhone": "Номер мобильного телефона",
							"mobilePhoneOptional": "Номер мобильного телефона (необязательно)",
							"name": "Имя контакта",
							"select": "Как бы вы и ваши гости хотели получать оповещения?"
						},
						"email": "Отправить эл. письмо",
						"emailHeader": "Эл. почта",
						"sms": "Отправить SMS",
						"smsHeader": "SMS-сообщение"
					},
					"propertyChange": {
						"changeFanMode": "Изменить режим вентилятора",
						"changeMode": "Изменить режим",
						"changeSetTemp": "Изменить уставку",
						"exactTemp": "Точная температура",
						"fanAuto": "Авто",
						"fanOn": "Вентилятор вкл.",
						"increaseDecrease": "Увеличить или уменьшить на",
						"smartPlugOff": "Выключить Smart Plug",
						"smartPlugOn": "Включить Smart Plug",
						"waterHeater": {
							"boost": "Установить на форсированный режим",
							"continuous": "Установить на непрерывный режим",
							"off": "Установить на выкл.",
							"schedule": "Установить на расписание"
						}
					},
					"root": {
						"notifyMe": "Отправить мне уведомление",
						"propertyChange": "Изменить свойства устройства"
					}
				},
				"thenDoThis": {
					"header": "ТО СДЕЛАТЬ ЭТО ПОЗЖЕ",
					"root": {
						"stateOfEquipment": "Состояние оборудования",
						"undo": "Отменить"
					},
					"timer": {
						"changeCheckBox": "Разрешить пользователю изменять длительность",
						"hours": "Столько часов",
						"minutes": "Столько минут",
						"title": "Насколько позже это должно произойти?"
					},
					"undo": {
						"title": "Изменить OneTouch?"
					}
				},
				"when": {
					"dayOfWeek": {
						"finalMenu": "Выберите дни, в которые вы бы хотели запускать OneTouch.",
						"picker": "Выберите дни недели",
						"weekday": "Будни",
						"weekend": "Выходные"
					},
					"header": "КОГДА",
					"pressAButton": {
						"button": "Правило срабатывает при нажатии кнопки"
					},
					"root": {
						"dayOfWeek": "День недели",
						"pressAButton": "При нажатии кнопки",
						"stateOfEquipment": "Состояние оборудования",
						"timeOfDay": "Время дня",
						"weather": "Погода"
					},
					"stateOfEquipment": {
						"doorWindow": {
							"closed": "Закрыто",
							"open": "Открыто"
						},
						"equipmentCategory": "Категории оборудования",
						"equipmentGroup": "Группы оборудования",
						"individualEquipment": "Индивидуальное оборудование",
						"sensor": {
							"alert": "Датчик сработал"
						},
						"smartPlug": {
							"off": "Smart Plug ВЫКЛ.",
							"on": "Smart Plug ВКЛ."
						},
						"thermostats": {
							"above": "Выше",
							"below": "Ниже",
							"between": "Между",
							"enterValue": "Введите температуру",
							"selectAboveValue": "Выберите температуру выше",
							"selectBelowValue": "Выберите температуру ниже"
						},
						"waterHeater": {
							"boost": "В форсированном режиме",
							"continuous": "Работает непрерывно",
							"off": "Выключен",
							"schedule": "Работает по расписанию"
						}
					},
					"timeOfDay": {
						"endTime": "Время окончания",
						"endTimeError": "Время окончания должно быть после времени начала",
						"formatError": "Пожалуйста, введите в правильном формате",
						"specify": "Задать время",
						"startTime": "Время начала",
						"sunriseSunset": "Восход/Закат",
						"to": "в"
					},
					"weather": {
						"current": "Текущая температура",
						"forecast": "Прогноз погоды"
					}
				}
			},
			"recommended": {
				"addRecommended": "Добавить OneTouch",
				"modal": {
					"titleFormatted": "Применить правило OneTouch '__ruleName__'"
				},
				"smartPlug": {
					"12am": {
						"description": "Выключить Smart Plug в полночь",
						"name": "Выключить в полночь",
						"nameFormatted": "Выключить в полночь: __name__"
					},
					"oneHour": {
						"description": "Включить Smart Plug на 1 час",
						"name": "Таймер на один час",
						"nameFormatted": "Таймер на один час: __name__"
					},
					"title": "Датчики Smart Plug",
					"turnOff": {
						"description": "Выключить Smart Plug немедленно",
						"name": "Выключить",
						"nameFormatted": "Выключить: __name__"
					}
				},
				"thermostat": {
					"title": "Термостаты",
					"turnOff": {
						"description": "Выключить термостат немедленно",
						"name": "Выключить термостат",
						"nameFormatted": "Выключить термостат: __name__"
					}
				},
				"title": "Рекомендуется",
				"waterHeater": {
					"boostFor2": {
						"description": "Включить форсированный режим на 2 часа",
						"name": "Форсировать 2 часа",
						"nameFormatted": "Форсировать 2 часа: __name__"
					},
					"title": "Водонагреватели"
				}
			}
		},
		"property": {
			"names": {
				"coolingSetpoint_x100": "Уставка охлаждения",
				"heatingControl": "Контроль отопления",
				"temperatureOffset": "Коррекция комнатной температуры",
				"cylinderConnection": "Соединение цилиндра",
				"oUTSensorProbe": "Сенсорный датчик",
				"oUTSensorType": "Сенсорный датчик используется в качества датчика температуры воздуха или пола",
				"coolingControl": "Контроль охлаждения",
				"actuatorType": "Тип привода",
				"valveProtection": "Защита клапана",
				"frostSetpoint_x100": "Заданная температура замерзания",
				"floorCoolingMin_x100": "Предел охлаждения датчика температуры пола",
				"floorHeatingMax_x100": "Максимальная температура датчика температуры пола",
				"floorHeatingMin_x100": "Минимальная температура датчика температуры пола",
				"heatingSetpoint_x100": "Уставка отопления",
				"holdDuration": "Продолжительность ожидания (минуты)",
				"lEDMode": "Светодиодный режим",
				"lockKey": "Хотите изменить настройки блокировки на вашем термостате?",
				"keyLock": "Хотите изменить настройки блокировки на вашем термостате?",
				"maxHeatSetpoint_x100": "Предел уставки отопления ",
				"minCoolSetpoint_x100": "Предел уставки охлаждения",
				"networkLANIP": "IP-адрес",
				"networkLANMode": "Сетевой режим LAN",
				"networkLANRouterAddr": "Маршрутизатор",
				"networkLANSubnet": "Маска подсети",
				"networkPriDNS": "Основной DNS-сервер",
				"networkSecDNS": "Вторичный DNS-сервер",
				"shutOffDisplay": "Отключить ЖК-дисплей",
				"systemMode": "Системный режим",
				"temperatureDisplayMode": "Фаренгейт ИЛИ Цельсий",
				"timeFormat24Hour": "Часовой формат"
			},
			"values": {
				"actuatorClosed": "Нормально замкнутый",
				"actuatorOpen": "Нормально разомкнутый",
				"alwaysOn": "Всегда вкл.",
				"auto": "Авто",
				"celsius": "Цельсий",
				"cool": "Холодно",
				"cylinderConnected": "Цилиндр зонда подключен",
				"cylinderNotConnected": "Цилиндр зонда не подключен",
				"disabled": "Отключено",
				"dynamic": "Динамичный",
				"emergencyHeating": "Аварийное отопление",
				"enabled": "Включено",
				"fahrenheit": "Фаренгейт",
				"heat": "Жарко",
				"hour12": "12:00",
				"hour24": "24:00",
				"locked": "Да, заблокировать",
				"longCycle": "+/- 0,5 °C",
				"midCyle": "+/- 0,25 °C",
				"no": "Нет",
				"numberInCFormatted": "__number__ °C",
				"numberInFFormatted": "__number__ °F",
				"off": "Выкл.",
				"offWhenIdle": "Выкл., в режиме ожидания",
				"on": "Вкл.",
				"sensorAir": "Датчик температуры воздуха ",
				"sensorConnected": "Сенсорный датчик подключен",
				"sensorDewPointConnected": "Датчик точки росы подключен",
				"sensorFloor": "Датчик температуры пола",
				"sensorNotConnected": "Датчик не подключен",
				"shortCyle": "+/- 0",
				"static": "Статичный",
				"turnOff": "Выключить",
				"turnOn": "Включить",
				"unlocked": "Нет, не блокировать",
				"yes": "Да"
			}
		},
		"provisioning": {
			"boilerReceiver": "Расширительный бачок котла iT600",
			"coMonitor": "Детектор угарного газа",
			"coordinator": "Координирующее устройство",
			"device": "Управляемое устройство Salus",
			"doorSensor": "Дверной датчик",
			"energyMeter": "Монитор энергоэффективности всего дома",
			"gateway": "Универсальный шлюз Salus",
			"gatewayNode": "Шлюзовой узел",
			"it530Thermostat": "Термостат iT530",
			"it600Thermostat": "Термостат iT600",
			"namedEnergyMonitor": "Монитор энергоэффективности __name__",
			"optimaThermostat": "Термостат Optima",
			"smartPlug": "Датчик Smart Plug",
			"smokeAlarm": "Датчик дыма",
			"trv": "Терморегулирующий вентиль радиатора iT600",
			"windowSensor": "Оконный датчик",
			"wiringCenter": "Центр коммутации iT600"
		},
		"schedule": {
			"create": {
				"description": "Расписания позволяют автоматически запускать предпочтительные настройки вашего оборудования.",
				"no": "Не сейчас",
				"question": "Хотите создать расписание для этого оборудования прямо сейчас?",
				"yes": "Да, создать расписание"
			},
			"widget": {
				"title": "Расписание"
			}
		},
		"settings": {
			"empty": "К сожалению, у вас нет настроек для отображения!",
			"networkSettingsSaveConfirmSecondary": "Хотите сохранить ваши сетевые настройки?",
			"networksSettingsSaveConfirmPrimary": "Вы обновили ваши сетевые настройки. Чтобы изменения вступили в силу, не закрывайте эту страницу на протяжении 1 минуты.",
			"networksSettingsSavingPrimary": "Мы сохраняем ваши сетевые настройки. Пожалуйста, не закрывайте страницу.",
			"networksSettingsSavingSecondary": "Этот процесс займет примерно 1 минуту.",
			"title": "Настройки"
		},
		"stackedBarGraph": {
			"time": "Время",
			"watts": "Ватт"
		},
		"status": {
			"alias": "Имя оборудования",
			"battery": {
				"charged": "__val__% заряжено"
			},
			"monitoring": "Мониторинг",
			"thermostat": {
				"lock": "Термостат заблокирован",
				"unlock": "Термостат разблокирован"
			}
		},
		"thermostat": {
			"frostPointModal": {
				"header": "Выключить систему вентиляции и кондиционирования",
				"labels": {
					"buttonCancel": "Отмена",
					"buttonTurnOff": "Выключить вентиляцию и кондиционирование",
					"chooseFrostPoint": "Выбрать точку замерзания",
					"radioNo": "Нет, не задавать точку замерзания",
					"radioYes": "Да, установить точку замерзания на"
				},
				"subHeader": "Хотите установить температуру точки замерзания?",
				"tempModeC": "__number__ &#8451",
				"tempModeF": "__number__ &#8457"
			},
			"holdPointModal": {
				"header": "Оставить заданную температуру",
				"holdTitle": "Оставить",
				"labels": {
					"btnCancel": "Отмена",
					"btnOk": "ОК",
					"radioScheduleChange": "До следующего изменения расписания",
					"radioUntilChange": "До тех пор, пока я не поменяю заданную температуру"
				}
			},
			"menus": {
				"modeLabels": {
					"auto": "Авто",
					"cooling": "Охлаждение",
					"fan": "Вентилятор",
					"fanOn": "Вентилятор вкл.",
					"followSchedule": "Соблюдать расписание",
					"heating": "Отопление",
					"off": "Выкл.",
					"permanentHold": "Использовать постоянно",
					"systemOff": "Система выкл.",
					"temporaryHold": "Использовать временно"
				}
			}
		},
		"thermostatSingleControl": {
			"createPage": {
				"addButtonText": "Добавить новую единую систему управления",
				"bottomBlurb": "Вы по-прежнему сможете вносить изменения в единую систему управления после настройки.",
				"delete": "Удалить единую систему управления",
				"deviceError": "Вы должны подключить минимум 1 устройство к единой системе управления",
				"error": "При создании единой системы управления возникла проблема. Попробуйте еще раз.",
				"individualControls": "Индивидуальные элементы управления",
				"nameError": "Пожалуйста, введите допустимое имя вашей единой системы управления",
				"newTSCSectionTitle": "Дать имя этой единой системе управления",
				"newTSCText": "Например, Спальня наверху",
				"thermostatsSectionTitle": "Выберите термостаты, которые вы бы хотели добавить в эту единую систему управления.",
				"titleExisting": "Единые системы управления",
				"titleNoExisting": "Настройка единой системы управления",
				"typeError": "Вы не можете смешивать модели термостатов в TSC"
			},
			"initialSetup": {
				"description": "Измените одну, измените все. Lorem ipsum dolor sit amet, consectetur adipiscing elit. Sed gravida bibendum dictum. Maecenas nec eleifend dui. Suspendisse mollis purus scelerisque maximus ultricies. Nulla a metus arcu. Interdum et malesuada fames ac ante ipsum",
				"prompt": "Хотите настроить единую систему управления для нескольких термостатов?",
				"title": "Настройка единой системы управления"
			},
			"title": "Единая система управления термостата"
		},
		"trv": {
			"add": "Добавить терморегулирующий вентиль",
			"modal": {
				"title": "Выберите терморегулирующий вентиль радиатора для __name__",
				"tooMany": "Вы можете привязать до 6 терморегулирующих вентилей к одному термостату"
			},
			"noTrvs": "В настоящий момент к этому устройству не привязан ни один терморегулирующий вентиль",
			"title": "Терморегулирующие вентили этого термостата"
		},
		"usage": {
			"interactiveMode": "Интерактивный режим",
			"title": "Использование"
		}
	},
	"error404": {
		"backToDash": "На главную",
		"message": "Нам не удалось найти запрашиваемую вами страницу.",
		"title": "Ошибка 404"
	},
	"errors": {
		"responseText": "Текст ответа:",
		"serviceEndpoint": "Конечная точка службы:",
		"siteMessage": "К сожалению, произошла ошибка. Пожалуйста, нажмите здесь и попробуйте еще раз!",
		"statusCode": "Код состояния:",
		"statusText": "Текст состояния:"
	},
	"key": "consumer-en",
	"login": {
		"changePasswordWithToken": {
			"button": "Сохранить новый пароль",
			"confirmPasswordLabel": "Подтвердить новый пароль",
			"message": "Создать новый пароль",
			"newPasswordLabel": "Новый пароль",
			"resetPasswordTokenLabel": "Маркер сброса пароля"
		},
		"confirm": {
			"emailSent": "Мы только что отправили вам электронное письмо, чтобы вы могли подтвердить вашу учетную запись.",
			"headline": "Почти готово",
			"ready": "Готовы войти?",
			"resend": "Ваша учетная запись почти подтверждена, __user_name__!",
			"thanks": "Спасибо, что зарегистрировались, __user_name__!",
			"trustedSender": "Не забудьте добавить email@salus.com в список безопасных контактов, чтобы получать от нас новости."
		},
		"forgotPassword": {
			"backToSignInLinkLabel": "Вернуться на страницу входа",
			"button": "Отправить временный маркер по электронной почте",
			"inputLabel": "Отправить по электронной почте для этой учетной записи",
			"message": "Забыли пароль?"
		},
		"forgotPasswordConfirmation": {
			"button": "Вернуться на страницу входа",
			"message": "Мы отправили вам инструкции по сбросу пароля. Пожалуйста, проверьте вашу электронную почту.",
			"title": "Забыли пароль?"
		},
		"headline": "Добро пожаловать в \nSalus!",
		"login": {
			"accountLink": "Создать учетную запись",
			"accountMessage": "Еще не зарегистрированы?",
			"button": "Войти",
			"emailLabel": "Эл. почта",
			"error": {
				"accountLocked": "Ваша учетная запись была заблокирована после нескольких неудачных попыток входа. Пожалуйста, подождите 30 минут и попробуйте еще раз.",
				"invalidLanguage": "Пожалуйста, выберите язык",
				"invalidUsernamePassword": "Вы указали неверный адрес электронной почты или пароль. Попробуйте еще раз."
			},
			"forgotPassword": "Забыли пароль?",
			"keepLoggedIn": "Не выходить из системы",
			"passwordLabel": "Пароль",
			"resendConfirmationEmail": "Повторно отправить подтверждение по электронной почте",
			"siloMessage": {
				"eu": "Переключиться на приложение для США",
				"us": "Переключиться на приложение для ЕС"
			}
		},
		"pinpad": {
			"authInvalid": "Вы ввели неверный PIN-код",
			"authSuccess": "PIN-код прошел проверку подлинности",
			"pinRemoveFail": "Не удалось удалить PIN-код",
			"pinRemoved": "PIN-код успешно удален",
			"setFail": "Не удалось задать PIN-код",
			"setSuccess": "PIN-код успешно задан"
		},
		"resetPassword": {
			"changeFailed": "Не удалось изменить пароль",
			"requestNewToken": "Вы можете запросить другой маркер на странице восстановления пароля",
			"title": "Не удалось изменить пароль.",
			"tokensExpire": "Маркеры истекают каждые 6 часов",
			"tryAgain": "Вы можете попробовать еще раз, если при вводе маркера вы допустили опечатку"
		},
		"sendConfirmationEmail": {
			"backToSignInLinkLabel": "Вернуться на страницу входа",
			"button": "Повторно отправить подтверждение по электронной почте",
			"message": "Подтверждение учетной записи"
		},
		"signInWithToken": {
			"button": "Привязать устройство",
			"error": {
				"invalidToken": "login.signInWithToken.error.invalidToken"
			},
			"inputLabel": "Код активации",
			"message": "Связать это мобильное устройство с вашей учетной записью"
		},
		"welcome": {
			"accountLink": "Войти",
			"accountMessage": "Уже зарегистрировались?",
			"button": "Зарегистрироваться",
			"message": "Давайте начнем."
		}
	},
	"messageCenter": {
		"alerts": {
			"alarmSounding": "Аварийный сигнал, который звучит сейчас",
			"alert": "Оповещение",
			"criteria": "Критерии оповещения",
			"currentStatus": "Текущий статус",
			"dateTime": "Дата и время",
			"details": "Подробнее",
			"equipment": "Оборудование",
			"subHeader": "Оповещения lorem ipsum dolor sit amet alipsis diam.",
			"title": "Оповещения"
		},
		"notifications": {
			"subHeader": "Уведомления за последние 90 дней",
			"title": "Уведомления"
		},
		"title": "Центр сообщений"
	},
	"missingKey": "##############################",
	"myStatus": {
		"addNewGateway": "Добавить новый шлюз",
		"addNewStatus": "Добавить новый статус",
		"makeNewStatus": {
			"createNewOneTouch": "Создать новую систему OneTouch для этого статуса",
			"delete": "Удалить статус",
			"deleteWarning": "Удалить этот статус?",
			"editName": {
				"name": "Имя"
			},
			"invalidGateway": "Вы используете неверный шлюз. Пожалуйста, измените ваш шлюз или добавьте новый допустимый шлюз.",
			"ruleView": {
				"run": "Запустить в начале статуса"
			}
		},
		"newStatus": {
			"createStatusTitle": "Создать новый статус",
			"formFields": {
				"continue": "Продолжить",
				"statusName": "Имя статуса"
			},
			"giveStatusName": "Дать имя этому статусу",
			"selectIcon": "Выбрать значок для вашего статуса",
			"selectIconInstructions1": "Выберите значок в вашем IT600 и управляйте статусом через IT600 или приложение.",
			"selectIconInstructions2": "Выберите другой значок, чтобы управлять вашим статусом через приложение.",
			"showLessIcons": "Показать меньше значков",
			"showMoreIcons": "Показать больше значков"
		},
		"newStatusAdded": "Добавлен новый статус",
		"noGatewayMessage": "Шлюз не обнаружен. Пожалуйста, добавьте шлюз.",
		"title": "Мой статус"
	},
	"schedules": {
		"deviceTypes": {
			"smartPlug": "Датчики Smart Plug",
			"thermostat": "термостаты",
			"waterHeater": "водонагреватели"
		},
		"edit": {
			"changeIndividualThermostat": {
				"no": "Нет, только для этого",
				"subtitle": "Хотите применить эти изменения для всех термостатов данной модели?",
				"title": "Вы собираетесь изменить настройки одного из термостатов.",
				"yes": "Да, сделать это для всех термостатов этой модели"
			},
			"changeSingleControl": {
				"changeGroup": {
					"no": "Нет, не сейчас",
					"subtitle": "Вы действительно хотите сделать это сейчас?",
					"title": "Вы собираетесь изменить настройки всех термостатов в вашей единой системе управления",
					"yes": "Да, внести изменения"
				},
				"changeSingle": {
					"changeJustThermostat": "Внести изменения только для этого термостата",
					"changeSingleControl": "Внести изменения для всех термостатов в единой системе управления",
					"subtitle": "Хотите применить эти изменения для всех термостатов в единой системе управления?",
					"title": "Вы собираетесь изменить настройки одного из термостатов в вашей единой системе управления"
				}
			},
			"modal": {
				"addNew": "Добавить новую единую систему управления",
				"deleteLabel": "Удалить единую систему управления",
				"duplicateTstatsErrorBody": "Пожалуйста, убедитесь, что тот же самый термостат не привязан к другим единым системам управления, что у всех единых систем управления есть названия, и что выбран по крайней мере один термостат.",
				"duplicateTstatsErrorTitle": "Ошибка: не удалось сохранить изменения в одной или в нескольких единых системах управления.",
				"emptyIndividualControls": "Индивидуальные элементы управления не доступны",
				"emptySingleControls": "Нет доступных единых систем управления",
				"emptyThermostats": "Нет доступных термостатов",
				"individualLabel": "Индивидуальные элементы управления",
				"nameLabel": "Имя единой системы управления",
				"title": "Редактирование единых систем управления термостата"
			},
			"previousScreen": "< Предустановки расписания",
			"thermostatList": {
				"emptyThermostats": "Нет доступных термостатов или единых систем управления"
			},
			"thermostatSettings": {
				"addInterval": "Добавить интервал",
				"apply": "Применить расписание",
				"cancel": "Отмена",
				"description": "Lorem ipsum dolor sit amet, in molestie sententiae pro, an qui sint iuvaret officiis. Aperiri equidem ea vis, eam natum affert vituperata ex, nec ne constituam philosophia.",
				"start": "ВРЕМЯ НАЧАЛА",
				"temp": "ТЕМПЕРАТУРА"
			}
		},
		"emptyView": {
			"message": "У вас нет __type__ на этом шлюзе. Пожалуйста, добавьте __type__, чтобы задать для них расписания."
		},
		"presets": {
			"description": "Мы разработали три предустановленных расписания, исходя из распространенных повседневных образов жизни. Выберите одно из трех, либо создайте свое собственное.",
			"presetSchedules": {
				"createNew": {
					"description": "Задайте собственные расписания термостата, чтобы ваш дом работал именно так, как вы хотите.",
					"title": "Создайте свое собственное расписание"
				},
				"mostlyAway": {
					"description": "Для тех, кто проводит больше времени вне дома.",
					"title": "Нет дома большую часть времени"
				},
				"mostlyHome": {
					"description": "Для тех, кто проводит больше времени дома. ",
					"title": "Дома большую часть времени"
				},
				"workingWeek": {
					"description": "Для домов, жильцы которых работают по традиционному расписанию с 9 утра до 6 вечера с понедельника по пятницу и проводят выходные дома.",
					"title": "Традиционная рабочая неделя"
				}
			},
			"title": "Выберите предустановленное расписание, либо создайте собственное"
		},
		"schedule": {
			"addInterval": "Добавить интервал",
			"columnLabels": {
				"mode": "СИСТЕМНЫЙ РЕЖИМ",
				"startTime": "ВРЕМЯ НАЧАЛА",
				"temperature": "ТЕМПЕРАТУРА"
			},
			"deleteInterval": "Удалить интервал",
			"newInterval": {
				"add": "Добавить",
				"mode": {
					"cool": "Холодно",
					"heat": "Жарко",
					"off": "Выкл.",
					"on": "Вкл.",
					"title": "Режим:"
				},
				"startTime": "Время начала",
				"temperature": "Температура",
				"temperatureError": "Температура указана неверно. Пожалуйста, введите число между __floor__ и __ceiling__. Десятичные цифры должны заканчиваться на 0 или 5",
				"timeError": "Время указано неверно. Пожалуйста, введите время в формате чч:мм",
				"title": "Добавить новый интервал",
				"update": "Обновление"
			},
			"noIntervals": "В этом расписании нет интервалов.",
			"weekConfigurations": {
				"MO-FR": "ПН - ПТ",
				"MO-SU": "ПН - ВС",
				"SA-SU": "СБ - ВС"
			},
			"weekDropdown": {
				"daily": "Ежедневно",
				"fullWeek": "Дома большую часть времени / ПН-СБ",
				"workWeek": "Рабочая неделя / ПН-ПТ и СБ+ВС"
			}
		},
		"smartPlug": {
			"title": "Расписание датчика Smart Plug"
		},
		"thermostat": {
			"duplicateSchedule": {
				"description": "На каком термостате вы бы хотели дублировать это расписание?",
				"duplicate": "Дублировать",
				"error": "В расписании должны быть записи, чтобы дублировать его. Убедитесь, что вы сохранили ваше расписание",
				"title": "Дублировать расписание"
			},
			"instructions": "Выберите тип расписания, которое вы бы хотели создать для этой единой системы управления",
			"selectionTitle": "Выберите конфигурацию расписания",
			"subtitle": "Создайте свое собственное расписание",
			"title": "Расписание термостата"
		},
		"waterHeater": {
			"title": "Расписание водонагревателя"
		}
	},
	"settings": {
		"about": {
			"buildDateTitle": "Дата выпуска",
			"companyName": "Salus Controls Inc.",
			"companyTitle": "Компания",
			"copyrightFormatted": "© __currentYear__ Salus Controls Inc.",
			"releasedTitle": "Выпущено",
			"versionTitle": "Версия"
		},
		"dataCollection": {
			"options": {
				"off": "У вас всегда есть право на отключение сбора данных. Отключение означает, что приложение будет автоматически отключено, и вы не сможете использовать ваше мобильное устройство или компьютер для управления вашим оборудованием или службами. Вы всегда можете управлять вашим оборудованием вручную.  Подробные инструкции можно найти в Руководстве пользователя.",
				"on": "Мы рекомендуем оставить эту опцию включенной. Сбор данных на вашем мобильном устройстве и оборудовании используется для запуска приложения, подключенных служб управления домом, а также для отправки важных оповещений и уведомлений.",
				"optionPrefix": "Сбор данных:",
				"referUserGuide": "Вы всегда можете управлять вашим оборудованием вручную. Инструкции можно найти в Руководстве пользователя."
			},
			"subheader": "Вы решили выключить сбор данных. Таким образом, вы отключили приложение. Пожалуйста, включите сбор данных, чтобы продолжить пользоваться приложением",
			"title": "Сбор данных"
		},
		"manageDevices": {
			"devices": {
				"addShare": "Привязать мобильное устройство",
				"deleteShareModal": "Вы собираетесь удалить",
				"deleteUser": "Удалить пользователя",
				"description": "Вы можете поделиться вашим оборудованием SalusConnect с неограниченным количеством пользователей. Вы контролируете, что видят и к чему имеют доступ ваши гости.",
				"empty": "Вы еще не поделились вашей учетной записью с гостями.",
				"formHeader": "Привязать мобильное устройство",
				"formLabels": {
					"countrySelect": "Страна",
					"deselectAll": "Отменить выбор всех",
					"deviceListHeader": "Дать гостю доступ к:",
					"email": "Адрес электронной почты",
					"emptyDevices": "Нет доступных устройств",
					"firstName": "Имя",
					"lastName": "Фамилия",
					"name": "Имя или псевдоним для данного устройства",
					"selectAll": "Выбрать все"
				},
				"header": "Общий доступ к учетной записи"
			},
			"gateway": {
				"addGateway": "Добавить шлюз",
				"description": "",
				"empty": "Вы не подключили ни один шлюз.",
				"header": "Шлюзы"
			},
			"title": "Управление учетной записью"
		},
		"profile": {
			"changePassword": {
				"formFields": {
					"confirmPassword": "Подтвердить пароль",
					"newPassword": "Новый пароль",
					"oldPassword": "Старый пароль"
				},
				"passwordRequirements": "Пароли должны содержать от 6 до 14 символов и должны включать в себя одну цифру (0-9) или символ, одну букву в нижнем регистре (a-z) и одну букву в верхнем регистре (A-Z).",
				"title": "Смена пароля"
			},
			"deleteProfile": "Удалить профиль пользователя",
			"deleteProfileErrorMsg": "Ошибка при удалении профиля пользователя. Повторите попытку позже.",
			"deleteProfileWarningLine1": "Удалить ваш профиль пользователя?",
			"deleteProfileWarningLine2": "Эта операция не может быть отменена.",
			"formFields": {
				"email": "Адрес электронной почты",
				"emailConfirm": "Подтвердить адрес электронной почты",
				"firstName": "Имя",
				"languageSelect": "Язык",
				"lastName": "Фамилия",
				"submitButton": "Отправить"
			},
			"title": "Редактировать профиль"
		}
	},
	"setupWizard": {
		"headline": "Добро пожаловать в Salus!",
		"landing": {
			"createProfile": {
				"active": "Ваш профиль был создан."
			},
			"equipmentConnect": {
				"button": "Подключить оборудование",
				"inactive": "Подключить ваше оборудование к шлюзу прямо сейчас."
			},
			"equipmentShare": {
				"button": "Поделиться оборудованием",
				"inactive": "Делитесь вашим оборудованием, предоставляя доступ вашим близким и друзьям."
			},
			"gatewayConnect": {
				"active": "Ваш шлюз активирован. Теперь вы можете подключить ваше оборудование.",
				"button": "Активировать шлюз",
				"inactive": "Активировать ваш шлюз, чтобы приступить к использованию ваших устройств."
			},
			"header": {
				"connect": "Подключить оборудование к шлюзу",
				"gateway": "Активируйте ваш шлюз"
			},
			"subHeaderHtml": {
				"connect": "Успех! Вы создали профиль и активировали ваш шлюз.<br/>Давайте привяжем ваши устройства и подключим ваше оборудование к шлюзу прямо сейчас.",
				"gateway": "Успех! Вы создали профиль и активировали ваш шлюз."
			}
		},
		"newUserForm": {
			"cookieModal": {
				"information": "Cookie-файлы отвечают за работу веб-сайта Salus. Мы используем их, чтобы запоминать данные для входа, обеспечивать безопасный вход, собирать статистику и оптимизировать функционал. Вы не сможете продолжить, если не нажмете кнопку Принять. Пожалуйста, ознакомьтесь с __privacy_policy__ для получения более подробной информации."
			},
			"equipment": "У вас есть шлюз?",
			"formFields": {
				"countrySelect": "Страна",
				"email": "Адрес электронной почты",
				"emailConfirm": "Подтвердить адрес электронной почты",
				"firstName": "Имя",
				"languageSelect": "Язык",
				"lastName": "Фамилия",
				"password": "Пароль",
				"passwordConfirm": "Подтвердить пароль",
				"phone": "Номер телефона",
				"phoneType": "Тип телефона",
				"privacyPolicyLabel": "Я принимаю Условия и положения Salus Controls",
				"privacyPolicyLinkLabel": "Политика конфиденциальности",
				"submitButton": "Создать профиль",
				"termsAndConditionsLabel": "Я принимаю Условия и положения Salus Controls",
				"termsAndConditionsLinkLabel": "Условия и положения"
			},
			"header": "Установка проста.",
			"passwordRequirements": "Пароли должны содержать от 6 до 14 символов и должны включать в себя одну цифру (0-9) или символ, одну букву в нижнем регистре (a-z) и одну букву в верхнем регистре (A-Z).",
			"phoneTypes": {
				"phone": "Телефон",
				"tablet": "Планшет"
			},
			"subheader": "Создать профиль",
			"tooltip": {
				"equipment": "Отправляет сигнал вашему оборудованию, чтобы у вас был удаленный доступ."
			}
		},
		"pairing": {
			"buttonText": "Поиск оборудования",
			"header": "Добро пожаловать! Давайте подключим ваше оборудование",
			"noCoordinator": "Нет координирующего устройства",
			"paragraphHtml": "При подготовке к подключению оборудования, пожалуйста, убедитесь, что все оборудование включено.<ol><li>Чтобы начать, найдите кнопку на каждой единице оборудования. Не нажимайте пока. Если вам не удается найти кнопки на оборудовании, смотрите Руководство пользователя.</li><li>После этого вам нужно нажать оранжевую кнопку “Поиск оборудования” ниже. Пожалуйста, обратите внимание: как только вы нажмете кнопку “Поиск оборудования” у вас будет только две минуты, чтобы нажать кнопку на вашем оборудовании из Шага 1. Удерживайте эту кнопку нажатой 3-5 секунд.</li><li>Повторите этот процесс, пока все ваше оборудование не появится в списке ниже. Если вы повторили процесс несколько раз, и вы видите не все ваше оборудование, обратитесь в Службу поддержки.</li></ol>",
			"requiresCoordinator": "Для ввода устройства в эксплуатацию к шлюзу должно быть подключено координирующее устройство. Пожалуйста, попробуйте повторно зарегистрировать шлюз."
		},
		"provisioning": {
			"customize": {
				"access": "Доступ",
				"accessInfo": "Хотите предоставить доступ к этому оборудованию другим пользователям? Если да, то выберите ниже.",
				"clampsError": "Вам нужно выбрать 3 зажима.",
				"clampsReading": "Выберите зажимы, которые вы используете",
				"completeSetup": "Завершить настройку",
				"continueSetupEquipment": "Продолжить настройку оборудования",
				"energyMonitor": "Настройка монитора энергоэффективности всего дома",
				"noShares": "На данный момент общие пользователи не доступны. Вы сможете поделиться вашим оборудованием в любой момент после завершения настройки.",
				"oneTouch": "OneTouch",
				"oneTouchInfo": "OneTouch позволяет вам автоматически управлять и/или создавать оповещения для одной или нескольких единиц оборудования одним нажатием. Мы предварительно выбрали настройки, которые могут соответствовать вашим потребностям. Если они вам не нравятся, просто снимите флажок OneTouch и выберите другие настройки. Вы всегда можете внести изменения в любую систему OneTouch позднее.",
				"oneTouchPreselected": "Мы выбрали опции, которые могут вам подойти. Если они вам не нравятся, просто снимите флажок с OneTouch или выберите другую систему. Вы всегда можете внести изменения в любую систему OneTouch позднее.",
				"phasesReading": "Сколько фаз?",
				"pin": "Хотите прикрепить это оборудование на вашу панель управления?",
				"pinHeader": "Прикрепить",
				"pinInfo": "Прикрепляет самые важные элементы на вашу панель управления, откуда вы сможете легко и быстро получать к ним доступ.",
				"selectAnother": "Выбрать следующее оборудование.",
				"selectPhases": "Выбрать фазы",
				"selectVoltage": "Выбрать напряжение",
				"selectWhich": "Выберите оборудование, чтобы начать.",
				"setupEquipment": "Давайте настроим ваше оборудование",
				"success": {
					"mobile": {
						"description": "Любите приложения? Загрузите наше приложение прямо сейчас. Доступно в iTunes или GooglePlay.",
						"link": "Загрузить приложение",
						"title": "Мобильное приложение"
					},
					"myDashboard": {
						"description": "Зайдите на вашу новую панель управления. Панель позволяет вам легко управлять вашим оборудованием на одном экране. Вы можете добавить больше оборудования из панели управления позднее.",
						"link": "Перейти к моей панели управления",
						"title": "Моя панель управления"
					},
					"title": "Успех!\nВы завершили настройку."
				},
				"successfullySetup": "Успех! Вы завершили настройку.",
				"voltageReading": "Какое у вас напряжение?"
			},
			"naming": {
				"nowConnected": "Следующее оборудование теперь подключено к вашему шлюзу. Пожалуйста, дайте имя вашему оборудованию.",
				"success": "Успех!",
				"textbox": "Дать имя этому оборудованию (например, Термостат спальни)"
			},
			"select": {
				"connect": "Подключить оборудование",
				"currentlyScanning": "Поиск новых устройств...",
				"letsConnect": "Давайте подключим ваше оборудование",
				"notFound": "К сожалению, мы не обнаружили ни одного устройства",
				"select": "Установите флажок напротив каждой единицы оборудования, которые вы бы хотели подключить прямо сейчас. Нажмите \"Подключить оборудование\".",
				"selectError": "Пожалуйста, выберите по крайней мере одно оборудование, чтобы продолжить"
			}
		},
		"subheader": "Поскольку вы пользуетесь нашей системой впервые, пожалуйста, выполните несколько простых шагов по управлению вашей учетной записью и оборудованием.<br/>Давайте настроим вашу новую систему."
	}
}